6000
6000
6000
6000
6000
6000
6000
6000
6000
6000
4000
4001
4002
4003
4004
4005
4006
4007
4008
4009
400a
400b
400c
400d
400e
400f
4010
4011
4012
4013
4014
4015
4016
4017
4018
4019
401a
401b
401c
401d
401e
401f
4020
4021
4022
4023
4024
4025
4026
4027
4028
4029
402a
402b
402c
402d
402e
402f
4030
4031
4032
4033
4034
4035
4036
4037
4038
4039
403a
403b
403c
403d
403e
403f
4040
4041
4042
4043
4044
4045
4046
4047
4048
4049
404a
404b
404c
404d
404e
404f
4050
4051
4052
4053
4054
4055
4056
4057
4058
4059
405a
405b
405c
405d
405e
405f
4060
4061
4062
4063
4064
4065
4066
4067
4068
4069
406a
406b
406c
406d
406e
406f
4070
4071
4072
4073
4074
4075
4076
4077
4078
4079
407a
407b
407c
407d
407e
407f
4080
4081
4082
4083
4084
4085
4086
4087
4088
4089
408a
408b
408c
408d
408e
408f
4090
4091
4092
4093
4094
4095
4096
4097
4098
4099
409a
409b
409c
409d
409e
409f
40a0
40a1
40a2
40a3
40a4
40a5
40a6
40a7
40a8
40a9
40aa
40ab
40ac
40ad
40ae
40af
40b0
40b1
40b2
40b3
40b4
40b5
40b6
40b7
40b8
40b9
40ba
40bb
40bc
40bd
40be
40bf
40c0
40c1
40c2
40c3
40c4
40c5
40c6
40c7
40c8
40c9
40ca
40cb
40cc
40cd
40ce
40cf
40d0
40d1
40d2
40d3
40d4
40d5
40d6
40d7
40d8
40d9
40da
40db
40dc
40dd
40de
40df
40e0
40e1
40e2
40e3
40e4
40e5
40e6
40e7
40e8
40e9
40ea
40eb
40ec
40ed
40ee
40ef
40f0
40f1
40f2
40f3
40f4
40f5
40f6
40f7
40f8
40f9
40fa
40fb
40fc
40fd
40fe
40ff
4100
4101
4102
4103
4104
4105
4106
4107
4108
4109
410a
410b
410c
410d
410e
410f
4110
4111
4112
4113
4114
4115
4116
4117
4118
4119
411a
411b
411c
411d
411e
411f
4120
4121
4122
4123
4124
4125
4126
4127
4128
4129
412a
412b
412c
412d
412e
412f
4130
4131
4132
4133
4134
4135
4136
4137
4138
4139
413a
413b
413c
413d
413e
413f
4140
4141
4142
4143
4144
4145
4146
4147
4148
4149
414a
414b
414c
414d
414e
414f
4150
4151
4152
4153
4154
4155
4156
4157
4158
4159
415a
415b
415c
415d
415e
415f
4160
4161
4162
4163
4164
4165
4166
4167
4168
4169
416a
416b
416c
416d
416e
416f
4170
4171
4172
4173
4174
4175
4176
4177
4178
4179
417a
417b
417c
417d
417e
417f
4180
4181
4182
4183
4184
4185
4186
4187
4188
4189
418a
418b
418c
418d
418e
418f
4190
4191
4192
4193
4194
4195
4196
4197
4198
4199
419a
419b
419c
419d
419e
419f
41a0
41a1
41a2
41a3
41a4
41a5
41a6
41a7
41a8
41a9
41aa
41ab
41ac
41ad
41ae
41af
41b0
41b1
41b2
41b3
41b4
41b5
41b6
41b7
41b8
41b9
41ba
41bb
41bc
41bd
41be
41bf
41c0
41c1
41c2
41c3
41c4
41c5
41c6
41c7
41c8
41c9
41ca
41cb
41cc
41cd
41ce
41cf
41d0
41d1
41d2
41d3
41d4
41d5
41d6
41d7
41d8
41d9
41da
41db
41dc
41dd
41de
41df
41e0
41e1
41e2
41e3
41e4
41e5
41e6
41e7
41e8
41e9
41ea
41eb
41ec
41ed
41ee
41ef
41f0
41f1
41f2
41f3
41f4
41f5
41f6
41f7
41f8
41f9
41fa
41fb
41fc
41fd
41fe
41ff
4200
4201
4202
4203
4204
4205
4206
4207
4208
4209
420a
420b
420c
420d
420e
420f
4210
4211
4212
4213
4214
4215
4216
4217
4218
4219
421a
421b
421c
421d
421e
421f
4220
4221
4222
4223
4224
4225
4226
4227
4228
4229
422a
422b
422c
422d
422e
422f
4230
4231
4232
4233
4234
4235
4236
4237
4238
4239
423a
423b
423c
423d
423e
423f
4240
4241
4242
4243
4244
4245
4246
4247
4248
4249
424a
424b
424c
424d
424e
424f
4250
4251
4252
4253
4254
4255
4256
4257
4258
4259
425a
425b
425c
425d
425e
425f
4260
4261
4262
4263
4264
4265
4266
4267
4268
4269
426a
426b
426c
426d
426e
426f
4270
4271
4272
4273
4274
4275
4276
4277
4278
4279
427a
427b
427c
427d
427e
427f
4280
4281
4282
4283
4284
4285
4286
4287
4288
4289
428a
428b
428c
428d
428e
428f
4290
4291
4292
4293
4294
4295
4296
4297
4298
4299
429a
429b
429c
429d
429e
429f
42a0
42a1
42a2
42a3
42a4
42a5
42a6
42a7
42a8
42a9
42aa
42ab
42ac
42ad
42ae
42af
42b0
42b1
42b2
42b3
42b4
42b5
42b6
42b7
42b8
42b9
42ba
42bb
42bc
42bd
42be
42bf
42c0
42c1
42c2
42c3
42c4
42c5
42c6
42c7
42c8
42c9
42ca
42cb
42cc
42cd
42ce
42cf
42d0
42d1
42d2
42d3
42d4
42d5
42d6
42d7
42d8
42d9
42da
42db
42dc
42dd
42de
42df
42e0
42e1
42e2
42e3
42e4
42e5
42e6
42e7
42e8
42e9
42ea
42eb
42ec
42ed
42ee
42ef
42f0
42f1
42f2
42f3
42f4
42f5
42f6
42f7
42f8
42f9
42fa
42fb
42fc
42fd
42fe
42ff
4300
4301
4302
4303
4304
4305
4306
4307
4308
4309
430a
430b
430c
430d
430e
430f
2000
2001
2002
2003
2004
2005
2006
2007
2008
2009
200a
200b
200c
200d
200e
200f
2010
2011
2012
2013
2014
2015
2016
2017
2018
2019
201a
201b
201c
201d
201e
201f
2020
2021
2022
2023
2024
2025
2026
2027
2028
2029
202a
202b
202c
202d
202e
202f
2030
2031
2032
2033
2034
2035
2036
2037
2038
2039
203a
203b
203c
203d
203e
203f
2040
2041
2042
2043
2044
2045
2046
2047
2048
2049
204a
204b
204c
204d
204e
204f
2050
2051
2052
2053
2054
2055
2056
2057
2058
2059
205a
205b
205c
205d
205e
205f
2060
2061
2062
2063
2064
2065
2066
2067
2068
2069
206a
206b
206c
206d
206e
206f
2070
2071
2072
2073
2074
2075
2076
2077
2078
2079
207a
207b
207c
207d
207e
207f
2080
2081
2082
2083
2084
2085
2086
2087
2088
2089
208a
208b
208c
208d
208e
208f
2090
2091
2092
2093
2094
2095
2096
2097
2098
2099
209a
209b
209c
209d
209e
209f
20a0
20a1
20a2
20a3
20a4
20a5
20a6
20a7
20a8
20a9
20aa
20ab
20ac
20ad
20ae
20af
20b0
20b1
20b2
20b3
20b4
20b5
20b6
20b7
20b8
20b9
20ba
20bb
20bc
20bd
20be
20bf
20c0
20c1
20c2
20c3
20c4
20c5
20c6
20c7
20c8
20c9
20ca
20cb
20cc
20cd
20ce
20cf
20d0
20d1
20d2
20d3
20d4
20d5
20d6
20d7
20d8
20d9
20da
20db
20dc
20dd
20de
20df
20e0
20e1
20e2
20e3
20e4
20e5
20e6
20e7
20e8
20e9
20ea
20eb
20ec
20ed
20ee
20ef
20f0
20f1
20f2
20f3
20f4
20f5
20f6
20f7
20f8
20f9
20fa
20fb
20fc
20fd
20fe
20ff
2100
2101
2102
2103
2104
2105
2106
2107
2108
2109
210a
210b
210c
210d
210e
210f
2110
2111
2112
2113
2114
2115
2116
2117
2118
2119
211a
211b
211c
211d
211e
211f
2120
2121
2122
2123
2124
2125
2126
2127
2128
2129
212a
212b
212c
212d
212e
212f
2130
2131
2132
2133
2134
2135
2136
2137
2138
2139
213a
213b
213c
213d
213e
213f
2200
2201
2202
2203
2204
2205
2206
2207
2208
2209
220a
220b
220c
220d
220e
220f
2210
2211
2212
2213
2214
2215
2216
2217
2218
2219
221a
221b
221c
221d
221e
221f
2220
2221
2222
2223
2224
2225
2226
2227
2228
2229
222a
222b
222c
222d
222e
222f
2230
2231
2232
2233
2234
2235
2236
2237
2238
2239
223a
223b
223c
223d
223e
223f
2240
2241
2242
2243
2244
2245
2246
2247
2248
2249
224a
224b
224c
224d
224e
224f
2250
2251
2252
2253
2254
2255
2256
2257
2258
2259
225a
225b
225c
225d
225e
225f
2260
2261
2262
2263
2264
2265
2266
2267
2268
2269
226a
226b
226c
226d
226e
226f
2270
2271
2272
2273
2274
2275
2276
2277
2278
2279
227a
227b
227c
227d
227e
227f
2280
2281
2282
2283
2284
2285
2286
2287
2288
2289
228a
228b
228c
228d
228e
228f
2290
2291
2292
2293
2294
2295
2296
2297
2298
2299
229a
229b
229c
229d
229e
229f
22a0
22a1
22a2
22a3
22a4
22a5
22a6
22a7
22a8
22a9
22aa
22ab
22ac
22ad
22ae
22af
22b0
22b1
22b2
22b3
22b4
22b5
22b6
22b7
22b8
22b9
22ba
22bb
22bc
22bd
22be
22bf
22c0
22c1
22c2
22c3
22c4
22c5
22c6
22c7
22c8
22c9
22ca
22cb
22cc
22cd
22ce
22cf
22d0
22d1
22d2
22d3
22d4
22d5
22d6
22d7
22d8
22d9
22da
22db
22dc
22dd
22de
22df
22e0
22e1
22e2
22e3
22e4
22e5
22e6
22e7
22e8
22e9
22ea
22eb
22ec
22ed
22ee
22ef
22f0
22f1
22f2
22f3
22f4
22f5
22f6
22f7
22f8
22f9
22fa
22fb
22fc
22fd
22fe
22ff
2300
2301
2302
2303
2304
2305
2306
2307
2308
2309
230a
230b
230c
230d
230e
230f
2310
2311
2312
2313
2314
2315
2316
2317
2318
2319
231a
231b
231c
231d
231e
231f
2320
2321
2322
2323
2324
2325
2326
2327
2328
2329
232a
232b
232c
232d
232e
232f
2330
2331
2332
2333
2334
2335
2336
2337
2338
2339
233a
233b
233c
233d
233e
233f
2400
2401
2402
2403
2404
2405
2406
2407
2408
2409
240a
240b
240c
240d
240e
240f
2410
2411
2412
2413
2414
2415
2416
2417
2418
2419
241a
241b
241c
241d
241e
241f
2420
2421
2422
2423
2424
2425
2426
2427
2428
2429
242a
242b
242c
242d
242e
242f
2430
2431
2432
2433
2434
2435
2436
2437
2438
2439
243a
243b
243c
243d
243e
243f
2440
2441
2442
2443
2444
2445
2446
2447
2448
2449
244a
244b
244c
244d
244e
244f
2450
2451
2452
2453
2454
2455
2456
2457
2458
2459
245a
245b
245c
245d
245e
245f
2460
2461
2462
2463
2464
2465
2466
2467
2468
2469
246a
246b
246c
246d
246e
246f
2470
2471
2472
2473
2474
2475
2476
2477
2478
2479
247a
247b
247c
247d
247e
247f
2480
2481
2482
2483
2484
2485
2486
2487
2488
2489
248a
248b
248c
248d
248e
248f
2490
2491
2492
2493
2494
2495
2496
2497
2498
2499
249a
249b
249c
249d
249e
249f
24a0
24a1
24a2
24a3
24a4
24a5
24a6
24a7
24a8
24a9
24aa
24ab
24ac
24ad
24ae
24af
24b0
24b1
24b2
24b3
24b4
24b5
24b6
24b7
24b8
24b9
24ba
24bb
24bc
24bd
24be
24bf
24c0
24c1
24c2
24c3
24c4
24c5
24c6
24c7
24c8
24c9
24ca
24cb
24cc
24cd
24ce
24cf
24d0
24d1
24d2
24d3
24d4
24d5
24d6
24d7
24d8
24d9
24da
24db
24dc
24dd
24de
24df
24e0
24e1
24e2
24e3
24e4
24e5
24e6
24e7
24e8
24e9
24ea
24eb
24ec
24ed
24ee
24ef
24f0
24f1
24f2
24f3
24f4
24f5
24f6
24f7
24f8
24f9
24fa
24fb
24fc
24fd
24fe
24ff
2500
2501
2502
2503
2504
2505
2506
2507
2508
2509
250a
250b
250c
250d
250e
250f
2510
2511
2512
2513
2514
2515
2516
2517
2518
2519
251a
251b
251c
251d
251e
251f
2520
2521
2522
2523
2524
2525
2526
2527
2528
2529
252a
252b
252c
252d
252e
252f
2530
2531
2532
2533
2534
2535
2536
2537
2538
2539
253a
253b
253c
253d
253e
253f
2600
2601
2602
2603
2604
2605
2606
2607
2608
2609
260a
260b
260c
260d
260e
260f
2610
2611
2612
2613
2614
2615
2616
2617
2618
2619
261a
261b
261c
261d
261e
261f
2620
2621
2622
2623
2624
2625
2626
2627
2628
2629
262a
262b
262c
262d
262e
262f
2630
2631
2632
2633
2634
2635
2636
2637
2638
2639
263a
263b
263c
263d
263e
263f
2640
2641
2642
2643
2644
2645
2646
2647
2648
2649
264a
264b
264c
264d
264e
264f
2650
2651
2652
2653
2654
2655
2656
2657
2658
2659
265a
265b
265c
265d
265e
265f
2660
2661
2662
2663
2664
2665
2666
2667
2668
2669
266a
266b
266c
266d
266e
266f
2670
2671
2672
2673
2674
2675
2676
2677
2678
2679
267a
267b
267c
267d
267e
267f
2680
2681
2682
2683
2684
2685
2686
2687
2688
2689
268a
268b
268c
268d
268e
268f
2690
2691
2692
2693
2694
2695
2696
2697
2698
2699
269a
269b
269c
269d
269e
269f
26a0
26a1
26a2
26a3
26a4
26a5
26a6
26a7
26a8
26a9
26aa
26ab
26ac
26ad
26ae
26af
26b0
26b1
26b2
26b3
26b4
26b5
26b6
26b7
26b8
26b9
26ba
26bb
26bc
26bd
26be
26bf
26c0
26c1
26c2
26c3
26c4
26c5
26c6
26c7
26c8
26c9
26ca
26cb
26cc
26cd
26ce
26cf
26d0
26d1
26d2
26d3
26d4
26d5
26d6
26d7
26d8
26d9
26da
26db
26dc
26dd
26de
26df
26e0
26e1
26e2
26e3
26e4
26e5
26e6
26e7
26e8
26e9
26ea
26eb
26ec
26ed
26ee
26ef
26f0
26f1
26f2
26f3
26f4
26f5
26f6
26f7
26f8
26f9
26fa
26fb
26fc
26fd
26fe
26ff
2700
2701
2702
2703
2704
2705
2706
2707
2708
2709
270a
270b
270c
270d
270e
270f
2710
2711
2712
2713
2714
2715
2716
2717
2718
2719
271a
271b
271c
271d
271e
271f
2720
2721
2722
2723
2724
2725
2726
2727
2728
2729
272a
272b
272c
272d
272e
272f
2730
2731
2732
2733
2734
2735
2736
2737
2738
2739
273a
273b
273c
273d
273e
273f
2800
2801
2802
2803
2804
2805
2806
2807
2808
2809
280a
280b
280c
280d
280e
280f
2810
2811
2812
2813
2814
2815
2816
2817
2818
2819
281a
281b
281c
281d
281e
281f
2820
2821
2822
2823
2824
2825
2826
2827
2828
2829
282a
282b
282c
282d
282e
282f
2830
2831
2832
2833
2834
2835
2836
2837
2838
2839
283a
283b
283c
283d
283e
283f
2840
2841
2842
2843
2844
2845
2846
2847
2848
2849
284a
284b
284c
284d
284e
284f
2850
2851
2852
2853
2854
2855
2856
2857
2858
2859
285a
285b
285c
285d
285e
285f
2860
2861
2862
2863
2864
2865
2866
2867
2868
2869
286a
286b
286c
286d
286e
286f
2870
2871
2872
2873
2874
2875
2876
2877
2878
2879
287a
287b
287c
287d
287e
287f
2880
2881
2882
2883
2884
2885
2886
2887
2888
2889
288a
288b
288c
288d
288e
288f
2890
2891
2892
2893
2894
2895
2896
2897
2898
2899
289a
289b
289c
289d
289e
289f
28a0
28a1
28a2
28a3
28a4
28a5
28a6
28a7
28a8
28a9
28aa
28ab
28ac
28ad
28ae
28af
28b0
28b1
28b2
28b3
28b4
28b5
28b6
28b7
28b8
28b9
28ba
28bb
28bc
28bd
28be
28bf
28c0
28c1
28c2
28c3
28c4
28c5
28c6
28c7
28c8
28c9
28ca
28cb
28cc
28cd
28ce
28cf
28d0
28d1
28d2
28d3
28d4
28d5
28d6
28d7
28d8
28d9
28da
28db
28dc
28dd
28de
28df
28e0
28e1
28e2
28e3
28e4
28e5
28e6
28e7
28e8
28e9
28ea
28eb
28ec
28ed
28ee
28ef
28f0
28f1
28f2
28f3
28f4
28f5
28f6
28f7
28f8
28f9
28fa
28fb
28fc
28fd
28fe
28ff
2900
2901
2902
2903
2904
2905
2906
2907
2908
2909
290a
290b
290c
290d
290e
290f
2910
2911
2912
2913
2914
2915
2916
2917
2918
2919
291a
291b
291c
291d
291e
291f
2920
2921
2922
2923
2924
2925
2926
2927
2928
2929
292a
292b
292c
292d
292e
292f
2930
2931
2932
2933
2934
2935
2936
2937
2938
2939
293a
293b
293c
293d
293e
293f
2a00
2a01
2a02
2a03
2a04
2a05
2a06
2a07
2a08
2a09
2a0a
2a0b
2a0c
2a0d
2a0e
2a0f
2a10
2a11
2a12
2a13
2a14
2a15
2a16
2a17
2a18
2a19
2a1a
2a1b
2a1c
2a1d
2a1e
2a1f
2a20
2a21
2a22
2a23
2a24
2a25
2a26
2a27
2a28
2a29
2a2a
2a2b
2a2c
2a2d
2a2e
2a2f
2a30
2a31
2a32
2a33
2a34
2a35
2a36
2a37
2a38
2a39
2a3a
2a3b
2a3c
2a3d
2a3e
2a3f
2a40
2a41
2a42
2a43
2a44
2a45
2a46
2a47
2a48
2a49
2a4a
2a4b
2a4c
2a4d
2a4e
2a4f
2a50
2a51
2a52
2a53
2a54
2a55
2a56
2a57
2a58
2a59
2a5a
2a5b
2a5c
2a5d
2a5e
2a5f
2a60
2a61
2a62
2a63
2a64
2a65
2a66
2a67
2a68
2a69
2a6a
2a6b
2a6c
2a6d
2a6e
2a6f
2a70
2a71
2a72
2a73
2a74
2a75
2a76
2a77
2a78
2a79
2a7a
2a7b
2a7c
2a7d
2a7e
2a7f
2a80
2a81
2a82
2a83
2a84
2a85
2a86
2a87
2a88
2a89
2a8a
2a8b
2a8c
2a8d
2a8e
2a8f
2a90
2a91
2a92
2a93
2a94
2a95
2a96
2a97
2a98
2a99
2a9a
2a9b
2a9c
2a9d
2a9e
2a9f
2aa0
2aa1
2aa2
2aa3
2aa4
2aa5
2aa6
2aa7
2aa8
2aa9
2aaa
2aab
2aac
2aad
2aae
2aaf
2ab0
2ab1
2ab2
2ab3
2ab4
2ab5
2ab6
2ab7
2ab8
2ab9
2aba
2abb
2abc
2abd
2abe
2abf
2ac0
2ac1
2ac2
2ac3
2ac4
2ac5
2ac6
2ac7
2ac8
2ac9
2aca
2acb
2acc
2acd
2ace
2acf
2ad0
2ad1
2ad2
2ad3
2ad4
2ad5
2ad6
2ad7
2ad8
2ad9
2ada
2adb
2adc
2add
2ade
2adf
2ae0
2ae1
2ae2
2ae3
2ae4
2ae5
2ae6
2ae7
2ae8
2ae9
2aea
2aeb
2aec
2aed
2aee
2aef
2af0
2af1
2af2
2af3
2af4
2af5
2af6
2af7
2af8
2af9
2afa
2afb
2afc
2afd
2afe
2aff
2b00
2b01
2b02
2b03
2b04
2b05
2b06
2b07
2b08
2b09
2b0a
2b0b
2b0c
2b0d
2b0e
2b0f
2b10
2b11
2b12
2b13
2b14
2b15
2b16
2b17
2b18
2b19
2b1a
2b1b
2b1c
2b1d
2b1e
2b1f
2b20
2b21
2b22
2b23
2b24
2b25
2b26
2b27
2b28
2b29
2b2a
2b2b
2b2c
2b2d
2b2e
2b2f
2b30
2b31
2b32
2b33
2b34
2b35
2b36
2b37
2b38
2b39
2b3a
2b3b
2b3c
2b3d
2b3e
2b3f
2c00
2c01
2c02
2c03
2c04
2c05
2c06
2c07
2c08
2c09
2c0a
2c0b
2c0c
2c0d
2c0e
2c0f
2c10
2c11
2c12
2c13
2c14
2c15
2c16
2c17
2c18
2c19
2c1a
2c1b
2c1c
2c1d
2c1e
2c1f
2c20
2c21
2c22
2c23
2c24
2c25
2c26
2c27
2c28
2c29
2c2a
2c2b
2c2c
2c2d
2c2e
2c2f
2c30
2c31
2c32
2c33
2c34
2c35
2c36
2c37
2c38
2c39
2c3a
2c3b
2c3c
2c3d
2c3e
2c3f
2c40
2c41
2c42
2c43
2c44
2c45
2c46
2c47
2c48
2c49
2c4a
2c4b
2c4c
2c4d
2c4e
2c4f
2c50
2c51
2c52
2c53
2c54
2c55
2c56
2c57
2c58
2c59
2c5a
2c5b
2c5c
2c5d
2c5e
2c5f
2c60
2c61
2c62
2c63
2c64
2c65
2c66
2c67
2c68
2c69
2c6a
2c6b
2c6c
2c6d
2c6e
2c6f
2c70
2c71
2c72
2c73
2c74
2c75
2c76
2c77
2c78
2c79
2c7a
2c7b
2c7c
2c7d
2c7e
2c7f
2c80
2c81
2c82
2c83
2c84
2c85
2c86
2c87
2c88
2c89
2c8a
2c8b
2c8c
2c8d
2c8e
2c8f
2c90
2c91
2c92
2c93
2c94
2c95
2c96
2c97
2c98
2c99
2c9a
2c9b
2c9c
2c9d
2c9e
2c9f
2ca0
2ca1
2ca2
2ca3
2ca4
2ca5
2ca6
2ca7
2ca8
2ca9
2caa
2cab
2cac
2cad
2cae
2caf
2cb0
2cb1
2cb2
2cb3
2cb4
2cb5
2cb6
2cb7
2cb8
2cb9
2cba
2cbb
2cbc
2cbd
2cbe
2cbf
2cc0
2cc1
2cc2
2cc3
2cc4
2cc5
2cc6
2cc7
2cc8
2cc9
2cca
2ccb
2ccc
2ccd
2cce
2ccf
2cd0
2cd1
2cd2
2cd3
2cd4
2cd5
2cd6
2cd7
2cd8
2cd9
2cda
2cdb
2cdc
2cdd
2cde
2cdf
2ce0
2ce1
2ce2
2ce3
2ce4
2ce5
2ce6
2ce7
2ce8
2ce9
2cea
2ceb
2cec
2ced
2cee
2cef
2cf0
2cf1
2cf2
2cf3
2cf4
2cf5
2cf6
2cf7
2cf8
2cf9
2cfa
2cfb
2cfc
2cfd
2cfe
2cff
2d00
2d01
2d02
2d03
2d04
2d05
2d06
2d07
2d08
2d09
2d0a
2d0b
2d0c
2d0d
2d0e
2d0f
2d10
2d11
2d12
2d13
2d14
2d15
2d16
2d17
2d18
2d19
2d1a
2d1b
2d1c
2d1d
2d1e
2d1f
2d20
2d21
2d22
2d23
2d24
2d25
2d26
2d27
2d28
2d29
2d2a
2d2b
2d2c
2d2d
2d2e
2d2f
2d30
2d31
2d32
2d33
2d34
2d35
2d36
2d37
2d38
2d39
2d3a
2d3b
2d3c
2d3d
2d3e
2d3f
2e00
2e01
2e02
2e03
2e04
2e05
2e06
2e07
2e08
2e09
2e0a
2e0b
2e0c
2e0d
2e0e
2e0f
2e10
2e11
2e12
2e13
2e14
2e15
2e16
2e17
2e18
2e19
2e1a
2e1b
2e1c
2e1d
2e1e
2e1f
2e20
2e21
2e22
2e23
2e24
2e25
2e26
2e27
2e28
2e29
2e2a
2e2b
2e2c
2e2d
2e2e
2e2f
2e30
2e31
2e32
2e33
2e34
2e35
2e36
2e37
2e38
2e39
2e3a
2e3b
2e3c
2e3d
2e3e
2e3f
2e40
2e41
2e42
2e43
2e44
2e45
2e46
2e47
2e48
2e49
2e4a
2e4b
2e4c
2e4d
2e4e
2e4f
2e50
2e51
2e52
2e53
2e54
2e55
2e56
2e57
2e58
2e59
2e5a
2e5b
2e5c
2e5d
2e5e
2e5f
2e60
2e61
2e62
2e63
2e64
2e65
2e66
2e67
2e68
2e69
2e6a
2e6b
2e6c
2e6d
2e6e
2e6f
2e70
2e71
2e72
2e73
2e74
2e75
2e76
2e77
2e78
2e79
2e7a
2e7b
2e7c
2e7d
2e7e
2e7f
2e80
2e81
2e82
2e83
2e84
2e85
2e86
2e87
2e88
2e89
2e8a
2e8b
2e8c
2e8d
2e8e
2e8f
2e90
2e91
2e92
2e93
2e94
2e95
2e96
2e97
2e98
2e99
2e9a
2e9b
2e9c
2e9d
2e9e
2e9f
2ea0
2ea1
2ea2
2ea3
2ea4
2ea5
2ea6
2ea7
2ea8
2ea9
2eaa
2eab
2eac
2ead
2eae
2eaf
2eb0
2eb1
2eb2
2eb3
2eb4
2eb5
2eb6
2eb7
2eb8
2eb9
2eba
2ebb
2ebc
2ebd
2ebe
2ebf
2ec0
2ec1
2ec2
2ec3
2ec4
2ec5
2ec6
2ec7
2ec8
2ec9
2eca
2ecb
2ecc
2ecd
2ece
2ecf
2ed0
2ed1
2ed2
2ed3
2ed4
2ed5
2ed6
2ed7
2ed8
2ed9
2eda
2edb
2edc
2edd
2ede
2edf
2ee0
2ee1
2ee2
2ee3
2ee4
2ee5
2ee6
2ee7
2ee8
2ee9
2eea
2eeb
2eec
2eed
2eee
2eef
2ef0
2ef1
2ef2
2ef3
2ef4
2ef5
2ef6
2ef7
2ef8
2ef9
2efa
2efb
2efc
2efd
2efe
2eff
2f00
2f01
2f02
2f03
2f04
2f05
2f06
2f07
2f08
2f09
2f0a
2f0b
2f0c
2f0d
2f0e
2f0f
2f10
2f11
2f12
2f13
2f14
2f15
2f16
2f17
2f18
2f19
2f1a
2f1b
2f1c
2f1d
2f1e
2f1f
2f20
2f21
2f22
2f23
2f24
2f25
2f26
2f27
2f28
2f29
2f2a
2f2b
2f2c
2f2d
2f2e
2f2f
2f30
2f31
2f32
2f33
2f34
2f35
2f36
2f37
2f38
2f39
2f3a
2f3b
2f3c
2f3d
2f3e
2f3f
3000
3001
3002
3003
3004
3005
3006
3007
3008
3009
300a
300b
300c
300d
300e
300f
3010
3011
3012
3013
3014
3015
3016
3017
3018
3019
301a
301b
301c
301d
301e
301f
3020
3021
3022
3023
3024
3025
3026
3027
3028
3029
302a
302b
302c
302d
302e
302f
3030
3031
3032
3033
3034
3035
3036
3037
3038
3039
303a
303b
303c
303d
303e
303f
3040
3041
3042
3043
3044
3045
3046
3047
3048
3049
304a
304b
304c
304d
304e
304f
3050
3051
3052
3053
3054
3055
3056
3057
3058
3059
305a
305b
305c
305d
305e
305f
3060
3061
3062
3063
3064
3065
3066
3067
3068
3069
306a
306b
306c
306d
306e
306f
3070
3071
3072
3073
3074
3075
3076
3077
3078
3079
307a
307b
307c
307d
307e
307f
3080
3081
3082
3083
3084
3085
3086
3087
3088
3089
308a
308b
308c
308d
308e
308f
3090
3091
3092
3093
3094
3095
3096
3097
3098
3099
309a
309b
309c
309d
309e
309f
30a0
30a1
30a2
30a3
30a4
30a5
30a6
30a7
30a8
30a9
30aa
30ab
30ac
30ad
30ae
30af
30b0
30b1
30b2
30b3
30b4
30b5
30b6
30b7
30b8
30b9
30ba
30bb
30bc
30bd
30be
30bf
30c0
30c1
30c2
30c3
30c4
30c5
30c6
30c7
30c8
30c9
30ca
30cb
30cc
30cd
30ce
30cf
30d0
30d1
30d2
30d3
30d4
30d5
30d6
30d7
30d8
30d9
30da
30db
30dc
30dd
30de
30df
30e0
30e1
30e2
30e3
30e4
30e5
30e6
30e7
30e8
30e9
30ea
30eb
30ec
30ed
30ee
30ef
30f0
30f1
30f2
30f3
30f4
30f5
30f6
30f7
30f8
30f9
30fa
30fb
30fc
30fd
30fe
30ff
3100
3101
3102
3103
3104
3105
3106
3107
3108
3109
310a
310b
310c
310d
310e
310f
3110
3111
3112
3113
3114
3115
3116
3117
3118
3119
311a
311b
311c
311d
311e
311f
3120
3121
3122
3123
3124
3125
3126
3127
3128
3129
312a
312b
312c
312d
312e
312f
3130
3131
3132
3133
3134
3135
3136
3137
3138
3139
313a
313b
313c
313d
313e
313f
3200
3201
3202
3203
3204
3205
3206
3207
3208
3209
320a
320b
320c
320d
320e
320f
3210
3211
3212
3213
3214
3215
3216
3217
3218
3219
321a
321b
321c
321d
321e
321f
3220
3221
3222
3223
3224
3225
3226
3227
3228
3229
322a
322b
322c
322d
322e
322f
3230
3231
3232
3233
3234
3235
3236
3237
3238
3239
323a
323b
323c
323d
323e
323f
3240
3241
3242
3243
3244
3245
3246
3247
3248
3249
324a
324b
324c
324d
324e
324f
3250
3251
3252
3253
3254
3255
3256
3257
3258
3259
325a
325b
325c
325d
325e
325f
3260
3261
3262
3263
3264
3265
3266
3267
3268
3269
326a
326b
326c
326d
326e
326f
3270
3271
3272
3273
3274
3275
3276
3277
3278
3279
327a
327b
327c
327d
327e
327f
3280
3281
3282
3283
3284
3285
3286
3287
3288
3289
328a
328b
328c
328d
328e
328f
3290
3291
3292
3293
3294
3295
3296
3297
3298
3299
329a
329b
329c
329d
329e
329f
32a0
32a1
32a2
32a3
32a4
32a5
32a6
32a7
32a8
32a9
32aa
32ab
32ac
32ad
32ae
32af
32b0
32b1
32b2
32b3
32b4
32b5
32b6
32b7
32b8
32b9
32ba
32bb
32bc
32bd
32be
32bf
32c0
32c1
32c2
32c3
32c4
32c5
32c6
32c7
32c8
32c9
32ca
32cb
32cc
32cd
32ce
32cf
32d0
32d1
32d2
32d3
32d4
32d5
32d6
32d7
32d8
32d9
32da
32db
32dc
32dd
32de
32df
32e0
32e1
32e2
32e3
32e4
32e5
32e6
32e7
32e8
32e9
32ea
32eb
32ec
32ed
32ee
32ef
32f0
32f1
32f2
32f3
32f4
32f5
32f6
32f7
32f8
32f9
32fa
32fb
32fc
32fd
32fe
32ff
3300
3301
3302
3303
3304
3305
3306
3307
3308
3309
330a
330b
330c
330d
330e
330f
3310
3311
3312
3313
3314
3315
3316
3317
3318
3319
331a
331b
331c
331d
331e
331f
3320
3321
3322
3323
3324
3325
3326
3327
3328
3329
332a
332b
332c
332d
332e
332f
3330
3331
3332
3333
3334
3335
3336
3337
3338
3339
333a
333b
333c
333d
333e
333f
3400
3401
3402
3403
3404
3405
3406
3407
3408
3409
340a
340b
340c
340d
340e
340f
3410
3411
3412
3413
3414
3415
3416
3417
3418
3419
341a
341b
341c
341d
341e
341f
3420
3421
3422
3423
3424
3425
3426
3427
3428
3429
342a
342b
342c
342d
342e
342f
3430
3431
3432
3433
3434
3435
3436
3437
3438
3439
343a
343b
343c
343d
343e
343f
3440
3441
3442
3443
3444
3445
3446
3447
3448
3449
344a
344b
344c
344d
344e
344f
3450
3451
3452
3453
3454
3455
3456
3457
3458
3459
345a
345b
345c
345d
345e
345f
3460
3461
3462
3463
3464
3465
3466
3467
3468
3469
346a
346b
346c
346d
346e
346f
3470
3471
3472
3473
3474
3475
3476
3477
3478
3479
347a
347b
347c
347d
347e
347f
3480
3481
3482
3483
3484
3485
3486
3487
3488
3489
348a
348b
348c
348d
348e
348f
3490
3491
3492
3493
3494
3495
3496
3497
3498
3499
349a
349b
349c
349d
349e
349f
34a0
34a1
34a2
34a3
34a4
34a5
34a6
34a7
34a8
34a9
34aa
34ab
34ac
34ad
34ae
34af
34b0
34b1
34b2
34b3
34b4
34b5
34b6
34b7
34b8
34b9
34ba
34bb
34bc
34bd
34be
34bf
34c0
34c1
34c2
34c3
34c4
34c5
34c6
34c7
34c8
34c9
34ca
34cb
34cc
34cd
34ce
34cf
34d0
34d1
34d2
34d3
34d4
34d5
34d6
34d7
34d8
34d9
34da
34db
34dc
34dd
34de
34df
34e0
34e1
34e2
34e3
34e4
34e5
34e6
34e7
34e8
34e9
34ea
34eb
34ec
34ed
34ee
34ef
34f0
34f1
34f2
34f3
34f4
34f5
34f6
34f7
34f8
34f9
34fa
34fb
34fc
34fd
34fe
34ff
3500
3501
3502
3503
3504
3505
3506
3507
3508
3509
350a
350b
350c
350d
350e
350f
3510
3511
3512
3513
3514
3515
3516
3517
3518
3519
351a
351b
351c
351d
351e
351f
3520
3521
3522
3523
3524
3525
3526
3527
3528
3529
352a
352b
352c
352d
352e
352f
3530
3531
3532
3533
3534
3535
3536
3537
3538
3539
353a
353b
353c
353d
353e
353f
3600
3601
3602
3603
3604
3605
3606
3607
3608
3609
360a
360b
360c
360d
360e
360f
3610
3611
3612
3613
3614
3615
3616
3617
3618
3619
361a
361b
361c
361d
361e
361f
3620
3621
3622
3623
3624
3625
3626
3627
3628
3629
362a
362b
362c
362d
362e
362f
3630
3631
3632
3633
3634
3635
3636
3637
3638
3639
363a
363b
363c
363d
363e
363f
3640
3641
3642
3643
3644
3645
3646
3647
3648
3649
364a
364b
364c
364d
364e
364f
3650
3651
3652
3653
3654
3655
3656
3657
3658
3659
365a
365b
365c
365d
365e
365f
3660
3661
3662
3663
3664
3665
3666
3667
3668
3669
366a
366b
366c
366d
366e
366f
3670
3671
3672
3673
3674
3675
3676
3677
3678
3679
367a
367b
367c
367d
367e
367f
3680
3681
3682
3683
3684
3685
3686
3687
3688
3689
368a
368b
368c
368d
368e
368f
3690
3691
3692
3693
3694
3695
3696
3697
3698
3699
369a
369b
369c
369d
369e
369f
36a0
36a1
36a2
36a3
36a4
36a5
36a6
36a7
36a8
36a9
36aa
36ab
36ac
36ad
36ae
36af
36b0
36b1
36b2
36b3
36b4
36b5
36b6
36b7
36b8
36b9
36ba
36bb
36bc
36bd
36be
36bf
36c0
36c1
36c2
36c3
36c4
36c5
36c6
36c7
36c8
36c9
36ca
36cb
36cc
36cd
36ce
36cf
36d0
36d1
36d2
36d3
36d4
36d5
36d6
36d7
36d8
36d9
36da
36db
36dc
36dd
36de
36df
36e0
36e1
36e2
36e3
36e4
36e5
36e6
36e7
36e8
36e9
36ea
36eb
36ec
36ed
36ee
36ef
36f0
36f1
36f2
36f3
36f4
36f5
36f6
36f7
36f8
36f9
36fa
36fb
36fc
36fd
36fe
36ff
3700
3701
3702
3703
3704
3705
3706
3707
3708
3709
370a
370b
370c
370d
370e
370f
3710
3711
3712
3713
3714
3715
3716
3717
3718
3719
371a
371b
371c
371d
371e
371f
3720
3721
3722
3723
3724
3725
3726
3727
3728
3729
372a
372b
372c
372d
372e
372f
3730
3731
3732
3733
3734
3735
3736
3737
3738
3739
373a
373b
373c
373d
373e
373f
3800
3801
3802
3803
3804
3805
3806
3807
3808
3809
380a
380b
380c
380d
380e
380f
3810
3811
3812
3813
3814
3815
3816
3817
3818
3819
381a
381b
381c
381d
381e
381f
3820
3821
3822
3823
3824
3825
3826
3827
3828
3829
382a
382b
382c
382d
382e
382f
3830
3831
3832
3833
3834
3835
3836
3837
3838
3839
383a
383b
383c
383d
383e
383f
3840
3841
3842
3843
3844
3845
3846
3847
3848
3849
384a
384b
384c
384d
384e
384f
3850
3851
3852
3853
3854
3855
3856
3857
3858
3859
385a
385b
385c
385d
385e
385f
3860
3861
3862
3863
3864
3865
3866
3867
3868
3869
386a
386b
386c
386d
386e
386f
3870
3871
3872
3873
3874
3875
3876
3877
3878
3879
387a
387b
387c
387d
387e
387f
3880
3881
3882
3883
3884
3885
3886
3887
3888
3889
388a
388b
388c
388d
388e
388f
3890
3891
3892
3893
3894
3895
3896
3897
3898
3899
389a
389b
389c
389d
389e
389f
38a0
38a1
38a2
38a3
38a4
38a5
38a6
38a7
38a8
38a9
38aa
38ab
38ac
38ad
38ae
38af
38b0
38b1
38b2
38b3
38b4
38b5
38b6
38b7
38b8
38b9
38ba
38bb
38bc
38bd
38be
38bf
38c0
38c1
38c2
38c3
38c4
38c5
38c6
38c7
38c8
38c9
38ca
38cb
38cc
38cd
38ce
38cf
38d0
38d1
38d2
38d3
38d4
38d5
38d6
38d7
38d8
38d9
38da
38db
38dc
38dd
38de
38df
38e0
38e1
38e2
38e3
38e4
38e5
38e6
38e7
38e8
38e9
38ea
38eb
38ec
38ed
38ee
38ef
38f0
38f1
38f2
38f3
38f4
38f5
38f6
38f7
38f8
38f9
38fa
38fb
38fc
38fd
38fe
38ff
3900
3901
3902
3903
3904
3905
3906
3907
3908
3909
390a
390b
390c
390d
390e
390f
3910
3911
3912
3913
3914
3915
3916
3917
3918
3919
391a
391b
391c
391d
391e
391f
3920
3921
3922
3923
3924
3925
3926
3927
3928
3929
392a
392b
392c
392d
392e
392f
3930
3931
3932
3933
3934
3935
3936
3937
3938
3939
393a
393b
393c
393d
393e
393f
3a00
3a01
3a02
3a03
3a04
3a05
3a06
3a07
3a08
3a09
3a0a
3a0b
3a0c
3a0d
3a0e
3a0f
3a10
3a11
3a12
3a13
3a14
3a15
3a16
3a17
3a18
3a19
3a1a
3a1b
3a1c
3a1d
3a1e
3a1f
3a20
3a21
3a22
3a23
3a24
3a25
3a26
3a27
3a28
3a29
3a2a
3a2b
3a2c
3a2d
3a2e
3a2f
3a30
3a31
3a32
3a33
3a34
3a35
3a36
3a37
3a38
3a39
3a3a
3a3b
3a3c
3a3d
3a3e
3a3f
3a40
3a41
3a42
3a43
3a44
3a45
3a46
3a47
3a48
3a49
3a4a
3a4b
3a4c
3a4d
3a4e
3a4f
3a50
3a51
3a52
3a53
3a54
3a55
3a56
3a57
3a58
3a59
3a5a
3a5b
3a5c
3a5d
3a5e
3a5f
3a60
3a61
3a62
3a63
3a64
3a65
3a66
3a67
3a68
3a69
3a6a
3a6b
3a6c
3a6d
3a6e
3a6f
3a70
3a71
3a72
3a73
3a74
3a75
3a76
3a77
3a78
3a79
3a7a
3a7b
3a7c
3a7d
3a7e
3a7f
3a80
3a81
3a82
3a83
3a84
3a85
3a86
3a87
3a88
3a89
3a8a
3a8b
3a8c
3a8d
3a8e
3a8f
3a90
3a91
3a92
3a93
3a94
3a95
3a96
3a97
3a98
3a99
3a9a
3a9b
3a9c
3a9d
3a9e
3a9f
3aa0
3aa1
3aa2
3aa3
3aa4
3aa5
3aa6
3aa7
3aa8
3aa9
3aaa
3aab
3aac
3aad
3aae
3aaf
3ab0
3ab1
3ab2
3ab3
3ab4
3ab5
3ab6
3ab7
3ab8
3ab9
3aba
3abb
3abc
3abd
3abe
3abf
3ac0
3ac1
3ac2
3ac3
3ac4
3ac5
3ac6
3ac7
3ac8
3ac9
3aca
3acb
3acc
3acd
3ace
3acf
3ad0
3ad1
3ad2
3ad3
3ad4
3ad5
3ad6
3ad7
3ad8
3ad9
3ada
3adb
3adc
3add
3ade
3adf
3ae0
3ae1
3ae2
3ae3
3ae4
3ae5
3ae6
3ae7
3ae8
3ae9
3aea
3aeb
3aec
3aed
3aee
3aef
3af0
3af1
3af2
3af3
3af4
3af5
3af6
3af7
3af8
3af9
3afa
3afb
3afc
3afd
3afe
3aff
3b00
3b01
3b02
3b03
3b04
3b05
3b06
3b07
3b08
3b09
3b0a
3b0b
3b0c
3b0d
3b0e
3b0f
3b10
3b11
3b12
3b13
3b14
3b15
3b16
3b17
3b18
3b19
3b1a
3b1b
3b1c
3b1d
3b1e
3b1f
3b20
3b21
3b22
3b23
3b24
3b25
3b26
3b27
3b28
3b29
3b2a
3b2b
3b2c
3b2d
3b2e
3b2f
3b30
3b31
3b32
3b33
3b34
3b35
3b36
3b37
3b38
3b39
3b3a
3b3b
3b3c
3b3d
3b3e
3b3f
3c00
3c01
3c02
3c03
3c04
3c05
3c06
3c07
3c08
3c09
3c0a
3c0b
3c0c
3c0d
3c0e
3c0f
3c10
3c11
3c12
3c13
3c14
3c15
3c16
3c17
3c18
3c19
3c1a
3c1b
3c1c
3c1d
3c1e
3c1f
3c20
3c21
3c22
3c23
3c24
3c25
3c26
3c27
3c28
3c29
3c2a
3c2b
3c2c
3c2d
3c2e
3c2f
3c30
3c31
3c32
3c33
3c34
3c35
3c36
3c37
3c38
3c39
3c3a
3c3b
3c3c
3c3d
3c3e
3c3f
3c40
3c41
3c42
3c43
3c44
3c45
3c46
3c47
3c48
3c49
3c4a
3c4b
3c4c
3c4d
3c4e
3c4f
3c50
3c51
3c52
3c53
3c54
3c55
3c56
3c57
3c58
3c59
3c5a
3c5b
3c5c
3c5d
3c5e
3c5f
3c60
3c61
3c62
3c63
3c64
3c65
3c66
3c67
3c68
3c69
3c6a
3c6b
3c6c
3c6d
3c6e
3c6f
3c70
3c71
3c72
3c73
3c74
3c75
3c76
3c77
3c78
3c79
3c7a
3c7b
3c7c
3c7d
3c7e
3c7f
3c80
3c81
3c82
3c83
3c84
3c85
3c86
3c87
3c88
3c89
3c8a
3c8b
3c8c
3c8d
3c8e
3c8f
3c90
3c91
3c92
3c93
3c94
3c95
3c96
3c97
3c98
3c99
3c9a
3c9b
3c9c
3c9d
3c9e
3c9f
3ca0
3ca1
3ca2
3ca3
3ca4
3ca5
3ca6
3ca7
3ca8
3ca9
3caa
3cab
3cac
3cad
3cae
3caf
3cb0
3cb1
3cb2
3cb3
3cb4
3cb5
3cb6
3cb7
3cb8
3cb9
3cba
3cbb
3cbc
3cbd
3cbe
3cbf
3cc0
3cc1
3cc2
3cc3
3cc4
3cc5
3cc6
3cc7
3cc8
3cc9
3cca
3ccb
3ccc
3ccd
3cce
3ccf
3cd0
3cd1
3cd2
3cd3
3cd4
3cd5
3cd6
3cd7
3cd8
3cd9
3cda
3cdb
3cdc
3cdd
3cde
3cdf
3ce0
3ce1
3ce2
3ce3
3ce4
3ce5
3ce6
3ce7
3ce8
3ce9
3cea
3ceb
3cec
3ced
3cee
3cef
3cf0
3cf1
3cf2
3cf3
3cf4
3cf5
3cf6
3cf7
3cf8
3cf9
3cfa
3cfb
3cfc
3cfd
3cfe
3cff
3d00
3d01
3d02
3d03
3d04
3d05
3d06
3d07
3d08
3d09
3d0a
3d0b
3d0c
3d0d
3d0e
3d0f
3d10
3d11
3d12
3d13
3d14
3d15
3d16
3d17
3d18
3d19
3d1a
3d1b
3d1c
3d1d
3d1e
3d1f
3d20
3d21
3d22
3d23
3d24
3d25
3d26
3d27
3d28
3d29
3d2a
3d2b
3d2c
3d2d
3d2e
3d2f
3d30
3d31
3d32
3d33
3d34
3d35
3d36
3d37
3d38
3d39
3d3a
3d3b
3d3c
3d3d
3d3e
3d3f
3e00
3e01
3e02
3e03
3e04
3e05
3e06
3e07
3e08
3e09
3e0a
3e0b
3e0c
3e0d
3e0e
3e0f
3e10
3e11
3e12
3e13
3e14
3e15
3e16
3e17
3e18
3e19
3e1a
3e1b
3e1c
3e1d
3e1e
3e1f
3e20
3e21
3e22
3e23
3e24
3e25
3e26
3e27
3e28
3e29
3e2a
3e2b
3e2c
3e2d
3e2e
3e2f
3e30
3e31
3e32
3e33
3e34
3e35
3e36
3e37
3e38
3e39
3e3a
3e3b
3e3c
3e3d
3e3e
3e3f
3e40
3e41
3e42
3e43
3e44
3e45
3e46
3e47
3e48
3e49
3e4a
3e4b
3e4c
3e4d
3e4e
3e4f
3e50
3e51
3e52
3e53
3e54
3e55
3e56
3e57
3e58
3e59
3e5a
3e5b
3e5c
3e5d
3e5e
3e5f
3e60
3e61
3e62
3e63
3e64
3e65
3e66
3e67
3e68
3e69
3e6a
3e6b
3e6c
3e6d
3e6e
3e6f
3e70
3e71
3e72
3e73
3e74
3e75
3e76
3e77
3e78
3e79
3e7a
3e7b
3e7c
3e7d
3e7e
3e7f
3e80
3e81
3e82
3e83
3e84
3e85
3e86
3e87
3e88
3e89
3e8a
3e8b
3e8c
3e8d
3e8e
3e8f
3e90
3e91
3e92
3e93
3e94
3e95
3e96
3e97
3e98
3e99
3e9a
3e9b
3e9c
3e9d
3e9e
3e9f
3ea0
3ea1
3ea2
3ea3
3ea4
3ea5
3ea6
3ea7
3ea8
3ea9
3eaa
3eab
3eac
3ead
3eae
3eaf
3eb0
3eb1
3eb2
3eb3
3eb4
3eb5
3eb6
3eb7
3eb8
3eb9
3eba
3ebb
3ebc
3ebd
3ebe
3ebf
3ec0
3ec1
3ec2
3ec3
3ec4
3ec5
3ec6
3ec7
3ec8
3ec9
3eca
3ecb
3ecc
3ecd
3ece
3ecf
3ed0
3ed1
3ed2
3ed3
3ed4
3ed5
3ed6
3ed7
3ed8
3ed9
3eda
3edb
3edc
3edd
3ede
3edf
3ee0
3ee1
3ee2
3ee3
3ee4
3ee5
3ee6
3ee7
3ee8
3ee9
3eea
3eeb
3eec
3eed
3eee
3eef
3ef0
3ef1
3ef2
3ef3
3ef4
3ef5
3ef6
3ef7
3ef8
3ef9
3efa
3efb
3efc
3efd
3efe
3eff
3f00
3f01
3f02
3f03
3f04
3f05
3f06
3f07
3f08
3f09
3f0a
3f0b
3f0c
3f0d
3f0e
3f0f
3f10
3f11
3f12
3f13
3f14
3f15
3f16
3f17
3f18
3f19
3f1a
3f1b
3f1c
3f1d
3f1e
3f1f
3f20
3f21
3f22
3f23
3f24
3f25
3f26
3f27
3f28
3f29
3f2a
3f2b
3f2c
3f2d
3f2e
3f2f
3f30
3f31
3f32
3f33
3f34
3f35
3f36
3f37
3f38
3f39
3f3a
3f3b
3f3c
3f3d
3f3e
3f3f
