Copyright 1986-2018 Xilinx, Inc. All Rights Reserved.
--------------------------------------------------------------------------------------------------------------------------------------------------------------------
| Tool Version : Vivado v.2018.2 (win64) Build 2258646 Thu Jun 14 20:03:12 MDT 2018
| Date         : Fri Feb 14 19:38:37 2020
| Host         : nit running 64-bit major release  (build 9200)
| Command      : report_methodology -file FPGA_TOP_3_methodology_drc_routed.rpt -pb FPGA_TOP_3_methodology_drc_routed.pb -rpx FPGA_TOP_3_methodology_drc_routed.rpx
| Design       : FPGA_TOP_3
| Device       : xc7a100tcsg324-1
| Speed File   : -1
| Design State : Routed
--------------------------------------------------------------------------------------------------------------------------------------------------------------------

Report Methodology

Table of Contents
-----------------
1. REPORT SUMMARY
2. REPORT DETAILS

1. REPORT SUMMARY
-----------------
            Netlist: netlist
          Floorplan: design_1
      Design limits: <entire design considered>
             Max violations: <unlimited>
             Violations found: 7
+-----------+----------+--------------------------------------------------------+------------+
| Rule      | Severity | Description                                            | Violations |
+-----------+----------+--------------------------------------------------------+------------+
| SYNTH-16  | Warning  | Address collision                                      | 1          |
| TIMING-18 | Warning  | Missing input or output delay                          | 5          |
| XDCC-1    | Warning  | Scoped Clock constraint overwritten with the same name | 1          |
+-----------+----------+--------------------------------------------------------+------------+

2. REPORT DETAILS
-----------------
SYNTH-16#1 Warning
Address collision  
Block RAM fifo/u0/mem_reg may get memory collision error if read and write address collide. Use of address collision resolution circuitry is recommended.
Related violations: <none>

TIMING-18#1 Warning
Missing input or output delay  
An input delay is missing on fifo_clear relative to clock(s) clk_in
Related violations: <none>

TIMING-18#2 Warning
Missing input or output delay  
An input delay is missing on reset_in relative to clock(s) clk_in
Related violations: <none>

TIMING-18#3 Warning
Missing input or output delay  
An input delay is missing on rx relative to clock(s) clk_in
Related violations: <none>

TIMING-18#4 Warning
Missing input or output delay  
An output delay is missing on is_receiving relative to clock(s) clk_in
Related violations: <none>

TIMING-18#5 Warning
Missing input or output delay  
An output delay is missing on recv_error relative to clock(s) clk_in
Related violations: <none>

XDCC-1#1 Warning
Scoped Clock constraint overwritten with the same name  
A new clock constraint create_clock overrides a previous scoped clock constraint with the same name. It is not recommended to override a scoped (typically an IP) clock constraint and could result in unexpected behaviors.
New: create_clock -period 10.000 -name clk_in -waveform {0.000 5.000} -add [get_ports clk_in] (Source: C:/Users/nitheesh/Desktop/RA/CSC_dense_FPGA_summer2019/only_chip_2/chip_for_sparse_mat_mul/chip.srcs/constrs_1/new/timing.xdc (Line: 2))
Previous: create_clock -period 10.000 [get_ports clk_in] (Source: c:/Users/nitheesh/Desktop/RA/CSC_dense_FPGA_summer2019/only_chip_2/chip_for_sparse_mat_mul/chip.srcs/sources_1/ip/clk_wiz_0/clk_wiz_0.xdc (Line: 56))
Related violations: <none>


