2
0
0
10
2
0
0
1
0
7
0
0
2
0
1
0
8
0
0
0
0
0
0
0
0
0
0
0
0
0
0
0
0
0
0
0
0
8
0
0
7
3
0
0
0
0
0
14
0
0
20
0
0
0
0
0
0
0
0
0
0
0
0
0
0
0
0
0
0
11
0
1f
0
0
0
8
28
0
0
0
0
0
0
0
0
0
0
0
0
0
0
0
0
0
f
0
0
0
0
0
0
0
0
0
0
0
0
0
0
0
0
0
0
0
0
0
0
0
0
0
0
0
0
0
0
11
0
0
0
0
0
0
34
0
0
0
0
0
5
2
0
0
0
0
0
0
0
5
0
0
0
0
0
5
13
0
0
0
0
0
0
0
0
0
0
0
0
0
3
0
0
0
0
0
0
0
0
0
0
0
2
2
0
f
b
0
0
0
0
0
0
0
0
0
0
0
9
0
0
0
0
0
0
0
0
0
0
0
b
0
0
0
3
12
0
3
c
0
0
0
0
0
0
0
0
0
0
0
0
0
0
0
0
0
0
b
b
0
1f
0
8
0
0
0
0
0
9
0
0
0
0
0
0
0
0
0
0
0
0
0
4
0
0
0
0
0
18
3
2
0
0
0
0
0
0
e
0
0
0
0
1c
0
0
5
0
0
0
0
d
0
0
1
0
1b
20
0
0
16
0
5
0
0
0
0
0
0
0
0
0
0
0
4
0
0
0
0
0
c
0
5
0
0
0
0
0
0
0
0
0
9
0
0
0
0
0
0
0
0
0
0
0
4
0
0
0
0
0
0
0
0
0
0
0
0
0
0
0
0
0
1c
5
0
0
0
0
0
0
0
8
0
0
0
0
a
2e
0
0
25
0
18
3
0
1
1
12
0
a
4
0
0
0
0
0
0
0
2
0
0
0
0
0
0
0
0
0
0
c
0
23
0
0
0
0
5
0
0
0
0
b
0
15
a
0
0
d
0
0
0
0
0
0
0
0
0
29
0
0
0
0
0
5
0
13
0
10
0
0
0
0
0
0
0
0
0
0
0
0
0
0
0
0
8
0
0
0
0
0
1e
0
0
0
0
e
1f
0
0
0
0
0
0
0
0
0
0
0
0
0
0
6
0
0
0
c
0
0
0
9
0
0
0
0
0
0
0
0
0
0
4
0
2
0
0
0
0
0
0
0
0
0
d
0
0
ed
6
e9
f5
fa
2
f9
f9
4
ef
d
a
e8
d
ec
fe
f
ea
fa
f4
f2
12
ec
fe
dd
f3
f3
fb
f6
f2
c
ff
ec
e1
5
7
fd
17
2
f8
12
e8
f0
ef
f3
ee
ed
ee
f2
fc
f4
fa
4
2
f1
b
b
f0
0
f7
1
ea
9
c
f0
2
5
f1
f3
ef
ef
eb
e4
e2
f1
e7
f5
f3
e4
15
ea
e9
d
ef
4
4
ee
9
fc
fd
ef
9
14
ff
f2
1
eb
f2
fd
16
f0
f7
f3
2
ea
e6
fd
9
a
ec
2
5
fd
16
f6
10
1a
12
19
20
f3
f5
f
d
eb
1
f1
e9
3
ee
f3
ec
fd
4
3
d
5
1d
f5
3
f9
4
f3
f2
fc
fd
c
f3
0
ed
fd
19
f8
0
da
e5
fc
f7
c
e6
e
f9
f8
5
f7
f6
8
8
e
d
d
11
a
a
f
5
f2
d8
6
ea
f4
2
f8
ec
d4
9
e
9
fe
fa
a
f8
ef
4
0
0
fa
f8
16
9
18
15
6
0
fc
e7
3
ec
ff
2
1f
ef
b
f5
f
f7
7
f4
ec
5
1
8
6
c
c
2
6
1b
c
13
10
fa
f0
f4
fa
0
f5
f1
5
f4
ff
f2
5
13
f8
f1
f4
ef
4
e
d
e
6
f7
1a
f
2
f8
12
dd
7
1b
9
a
17
14
e7
0
b
c
12
8
f7
6
a
ef
ee
5
16
ff
6
0
19
fc
a
7
eb
a
d3
f6
f8
ef
4
e2
1b
f3
2
16
1c
fe
23
1
0
f7
20
11
b
5
b
b
1
6
d
4
fe
6
f
e7
f0
e6
cd
1b
f2
1b
f6
f2
f
b
f
6
b
18
3
4
ff
2
7
fd
9
f9
8
c
3
10
ec
27
f4
ee
1f
fe
f1
f6
1
1e
ee
f8
1a
eb
1
f4
f
4
11
c
c
ee
f1
10
8
fe
f0
f6
d1
ec
e8
bb
f4
f8
4
14
fb
5
14
19
11
6
c
fc
e6
ce
f7
f3
fe
fa
fd
fc
5
fd
9
fe
f0
fb
f
11
2
ef
f1
12
4
15
2
6
d
3
ff
9
1
d4
f7
ea
e4
f6
ee
ec
c
0
c
b
a
f9
1
2
df
1f
e8
12
b
fc
fd
13
11
f7
eb
f0
a
9
f5
e9
b
cc
f7
f7
fb
d
ed
0
1
ef
ff
f6
18
f8
c
13
1d
20
ff
9
3
5
f4
fd
ed
e6
ed
ed
d3
12
ff
d3
f3
f4
ff
ef
ee
fc
f2
5
e5
ed
f9
e2
b
6
9
23
14
f4
7
fd
cf
f
e8
e1
d5
d
e8
d7
f9
9
eb
d
ea
f9
db
ed
e7
d4
f8
19
19
29
9
f8
4
d
ed
2
fc
6
e9
ec
fe
ee
1
2
6
ea
d3
ff
c0
11
e9
ef
d2
f2
fe
19
15
25
13
ef
d
ef
1a
8
11
13
fc
4
0
1c
11
fd
e6
cc
d6
e9
da
dc
fb
f5
e6
1c
0
ed
f0
eb
d
10
d
16
18
c
10
f
fc
ea
0
fe
dc
f8
e7
f1
d4
d8
1
e0
fc
f2
f6
ed
1c
7
1e
ee
4
d
f0
2
e
1e
18
f
ec
6
d8
a
fb
eb
ee
2
f1
ee
e1
e0
fb
7
ef
0
3f
c
14
16
9
17
f1
4
1b
f3
ef
3
0
ee
f7
f8
f2
ed
eb
ee
f4
da
e
e6
7
e3
ec
e9
eb
ed
e2
f5
1f
eb
18
20
d7
ef
12
f3
87
eb
f8
eb
de
10
14
a
d
fd
f3
ec
fa
f9
fb
13
1a
32
11
38
9
19
f8
f3
14
ff
b
f0
f5
4
e
1
b
e5
de
e6
d4
8
e8
6
f4
4
16
e
f
f8
f5
1c
1b
26
fc
f4
a
df
13
e4
4
ed
cb
ce
ff
9
d8
0
f7
d8
f4
fc
2
f3
1
5
fc
11
eb
34
1c
d9
16
7
d5
f1
f
f7
4
e9
ee
e7
e3
d2
d3
c3
19
9
1b
f4
a
17
7
fc
2d
fa
5
f5
19
f
1
f6
df
d7
f9
eb
db
e5
d1
db
e2
fc
a
f5
9
9
f3
f0
ce
f5
e7
fc
16
13
3
1d
2
19
f9
15
de
f5
0
a
d9
d
de
df
f3
cb
d8
e3
e5
2
ed
9
0
0
2
3d
26
f2
4
25
4
19
0
fa
1
fb
ff
eb
5
db
fa
b
a7
1
7
e9
e0
f9
16
f7
9
1
18
0
10
ec
12
ec
1c
18
eb
10
eb
e6
3
fe
4
f0
f6
db
fc
fa
13
0
f8
f0
29
5
f6
ff
d
b
d
11
f6
f6
e
ef
4
e4
f3
fc
ee
f4
1b
ef
e7
2b
c8
c
8
f2
f4
6
2d
0
6
ef
1f
ea
13
1
ea
13
c
7
ff
f8
3
c5
f4
dc
ca
d3
f5
b5
fc
7
5
23
a
fe
10
d
1d
ec
1b
d
ef
9
2
14
ea
22
e5
a
d1
a
ec
ed
fd
f4
19
f4
4
f3
f6
2c
ec
3
6
11
5
13
f5
3
f1
11
fe
1c
e2
f7
12
ee
db
f5
f7
6
f6
c9
ec
fb
e5
13
ef
ed
1d
8
fe
fe
8
e
fc
f8
3
e2
b
9
fb
17
4
ec
f4
e4
11
fc
ef
e6
f5
3
5
d3
e
fb
e7
e
1
f2
2
f2
f4
5
10
cf
f9
26
b
6
fa
f2
f3
e1
ff
de
dd
1d
e6
f6
1e
ec
df
ee
fe
ea
e0
ff
fa
f
7
fa
1
16
f8
e0
f9
fd
4
e6
10
2
a
e7
8
f5
fa
e7
e7
e3
e3
e4
ed
fd
0
eb
9
ed
16
f
f4
c
3
f4
fc
fb
ee
0
f5
f0
b
f6
e9
df
e6
f6
d5
df
e4
e1
f0
17
7
df
ed
4
1a
1
f1
fe
fb
1
3
f9
9
ee
1
ee
fa
b
f5
ef
f5
c
ea
f1
ee
f8
e0
b
da
0
1
5
19
14
8
f3
f0
f9
0
1
1
fb
ff
fa
10
5
e2
f2
ec
e4
ff
f3
e3
9
ee
e
e7
15
e
f4
9
7
fb
19
fa
f2
6
f7
1
2
f8
0
f6
e0
fb
d
e1
f5
1
fc
8
e8
10
f6
1
e
e4
eb
15
f
17
14
f4
f2
fa
fd
c
f8
1d
fe
fc
f3
fb
ff
5
f7
f0
3
1
fd
4
fe
12
e7
5
f0
13
9
7
3
f7
3
6
17
c
f1
5
fd
ff
8
f3
8
1a
ff
14
5
1b
4
10
6
f
f6
fc
6
f
1a
13
e
ed
9
fa
f8
fa
fb
5
f9
f
7
4
f9
8
1
fc
a
2
d9
9
b
ff
c
f9
fb
f6
15
1d
f7
13
b
f8
f2
fa
a
12
6
f2
7
9
5
f
5
14
e
fe
16
fc
e5
f7
13
fd
fc
7
15
0
2
16
ec
fa
fe
1
2
13
f0
13
d
11
e4
8
4
fe
1d
14
8
22
f8
8
e
fa
5
eb
fc
a
2
f3
7
ee
fb
ff
8
d
f3
ef
4
eb
d
ed
15
e1
4
8
10
27
12
17
ec
18
ed
f2
f
7
9
b
c
1b
6
f
f9
f6
0
fd
5
6
fc
e
e5
b
fd
b
4
e
f7
b
f
9
1
f8
e
10
f0
f0
4
c
fc
1
ef
b
1
9
ed
1
5
f7
e4
e
9
d
1d
e
fa
22
9
5
3
e
16
fc
fd
ef
b
d
2d
f8
1b
d7
e3
e7
d0
f
5
f4
ee
f0
14
f5
fb
ff
16
f4
16
2
7
1
f5
fa
1
f9
b
3
11
e
1b
ed
e3
c5
c
19
5
12
5
f4
e5
f9
9
f
13
f7
c
2
18
18
f9
7
e5
fb
a
e8
4
f
2
e6
e4
17
ee
ce
f3
f0
fa
ff
13
e
12
f5
f3
12
9
ff
13
f4
d
f2
15
13
fd
24
21
6
dd
e7
d9
20
d4
f3
0
ee
11
f5
d
15
17
5
7
f2
b
14
f
d
e1
f2
a
d
f1
f0
9
f8
3
a
f8
20
19
d
fc
f1
e2
ec
ff
f8
e1
19
ed
fc
1d
f8
f3
e6
f5
f1
f0
e7
e
17
19
1
ff
e
e6
d8
eb
b
ef
dd
a
fd
f9
ec
11
e9
8
e4
f7
e1
e5
f8
f7
d
2
e1
7
f
18
20
7
1c
f9
6
f1
4
f1
ff
e6
fa
14
e7
ee
eb
f1
f7
e9
e3
eb
e3
e7
1
f2
e3
14
9
12
10
e7
ea
f7
f3
f9
e6
c
f0
e4
4
8
2
f9
1
f8
14
e5
f4
e6
f3
e7
ef
f2
f7
fa
1
1e
2
2f
e1
f7
ed
f6
e9
ee
e6
4
eb
13
7
ee
f9
e7
f0
c
2
ed
2
ea
18
e2
23
17
fd
ef
ed
1
7
ea
fa
20
6
fb
8
f6
d
ed
f0
f8
2
e2
fd
3
f6
11
d9
13
3
e9
b
fd
4
16
1b
17
d
fc
da
4
f0
9
11
15
fc
e9
f2
f8
9
5
f7
f7
f3
3
f3
1
7
17
e0
ec
ec
e6
f4
f9
eb
f5
f4
1
5
2
ea
f3
f4
fc
fc
db
c
eb
f2
12
1
f
fc
f7
e9
e9
5
6
10
eb
ea
f5
f7
ed
f0
f1
ef
dd
4
f6
9
4
8
f0
0
4
a
f3
fb
f5
fe
ff
ff
fa
1c
1
f1
e7
fc
fb
e1
f5
fc
f5
f3
18
f
ff
2
e2
0
ee
e0
3
d
fd
ff
1
a
f7
f2
fc
e4
fd
fb
2
1
fa
e6
9
e1
fa
f8
e9
ff
5
fa
a
15
2
0
ea
f9
ed
9
f3
2
f3
f8
fd
9
3
0
dc
fe
fa
f3
8
ec
1a
fa
f9
a
f3
f5
16
8
5
1
fd
e
b
a
f9
4
f3
ed
8
f6
fd
8
23
f9
16
b
8
9
12
17
f5
3
fe
9
fc
c
e7
f6
11
f0
1
ea
f2
f4
b
f9
f1
f
8
10
f4
7
fb
e5
12
3
8
c
f3
19
fb
f5
4
fb
9
c
ec
eb
fe
f6
fb
ff
e4
0
ca
9
d
c
14
16
12
fe
e
f8
8
f5
ed
ec
6
2
ee
14
f7
0
f8
f7
f9
a
b
10
f5
0
fe
fb
6
e
5
3
12
1
5
1b
fe
14
fc
f8
10
a
11
16
fe
19
2
8
1
1
f7
e9
d8
f4
e
a
b
10
ff
8
8
f
e
1c
1c
fd
14
1
f
5
f4
10
8
e6
f6
b
0
ff
fb
f9
8
1b
1
f9
e8
e
17
a
a
14
14
10
14
2b
3
a
8
11
2
b
cc
ee
fa
5
10
a
b
f3
11
12
12
1c
e7
19
19
d
9
12
1
8
0
12
9
f8
1b
f4
4
f
2
1
12
f7
2
f7
1c
f
eb
1c
dd
e9
d
6
9
f7
f7
5
f4
d1
0
fb
2
1a
a
12
fb
ec
0
f4
e0
e4
f4
fe
f
e9
f9
0
12
1a
18
5
f8
7
e3
3
7
ce
e6
f6
fb
ff
1
8
fc
0
f4
e1
f4
b
f1
ef
6
8
d
1b
1c
16
0
1b
11
2c
f1
18
e
d8
ef
f1
f8
12
3
a
8
f0
7
0
e4
ee
f8
11
ff
c
7
b
f7
14
b
1a
10
19
f5
f
5
3
f1
f2
fa
fb
f
9
e
fc
6
fc
f1
fd
7
ee
0
4
0
8
f
f0
f
17
c
17
df
7
f1
ed
10
f8
7
ff
d
0
c
f5
3
f5
ff
e5
6
ed
e0
2
1e
2
2
6
d
f8
f4
f0
1
2
4
19
f
ed
7
2
11
8
7
ff
11
ff
e6
b
fb
f6
fa
2
fd
1a
7
1e
2
f0
3
17
18
ee
17
6
2
fc
f7
f9
e9
e
7
f1
12
5
df
b
2
dd
f9
fc
f7
10
17
12
7
df
f
fe
0
ff
f8
4
1
f3
fd
f0
1
8
fc
13
f1
f6
0
eb
fd
6
fc
12
ed
1
fb
13
f2
eb
f8
a
f6
f8
fa
0
0
4
14
fc
5
fb
f1
f8
0
f3
f4
4
17
ff
8
ff
15
a
ff
ff
4
fb
d
ff
f5
f6
eb
ee
16
c
4
f4
fc
1
f2
11
fd
e5
2
f9
1e
4
2
fc
fb
fe
f5
fb
e
ed
0
ff
fd
11
0
e9
7
9
4
f
5
11
0
f6
ff
fa
f6
fc
d
f6
17
15
1a
5
ed
f
ed
3
fc
1e
9
e7
f1
b
f5
ec
f3
f1
18
f8
f2
f2
ef
ee
6
f2
fe
ff
ee
8
19
5
4
f0
e7
ed
4
e
e9
fd
f8
f2
f2
ff
1
f1
fd
c
1
e4
9
ed
fa
f9
5
6
4
f1
2
a
ef
a
2
9
1
1e
1
fd
f9
eb
5
14
14
1d
13
fa
f4
3
9
ff
f6
a
e3
f9
fe
f9
fd
fe
20
fb
9
a
10
11
5
4
18
a
f9
d
a
4
10
11
13
f2
e3
f2
f0
4
3
3
4
b
fb
15
f0
d1
b
f6
12
ca
fd
f6
f5
f5
e9
f4
e7
5
fd
13
f3
b
f7
f0
1
4
f6
fa
ef
e9
d
5
c
f1
ee
f5
9
fa
2
e7
1
e6
e8
f1
2
b
e6
f2
12
ff
3
e0
f6
f1
fc
f6
fc
f1
3
ff
4
15
f3
f0
ea
c
fa
ec
fe
5
8
e4
e6
10
f4
0
ff
ec
d5
15
f0
5
3
f5
e9
f4
ef
b
17
1e
20
2e
0
ff
16
eb
2
a
1b
16
e
c
6
1c
ce
fe
e9
fb
9
ed
15
fe
9
f7
e
ed
fe
a
1b
1e
ff
d
21
1e
27
1c
10
1d
1a
3
fc
15
ca
9
f2
f3
1
f0
f7
fe
3
4
f0
3
b
f2
3
13
19
15
1d
1b
25
12
14
d
fa
f
b
17
d0
1
fc
6
fc
ef
ff
7
1
8
ff
fb
f7
f6
c
f1
10
f
d
6
22
12
11
f9
7
1f
d
15
f1
0
ec
5
e7
f6
4
14
8
f5
9
5
0
13
b
1
21
f7
a
1f
4
b
19
19
21
3
19
e1
ef
5
9
1
9
fb
f8
5
f6
f9
3
ef
5
f1
c
24
ee
17
1f
fb
0
26
b
2d
12
a
14
fd
12
d
fe
e3
ea
1
f4
3
f1
b
7
f
7
f8
15
11
a
f0
f5
19
10
2f
f7
4
27
e
fa
a
6
b
ea
f7
f5
d9
f9
6
ed
fe
d
f
ee
f5
4
fa
e3
f9
d8
1c
f4
16
f9
21
21
27
26
14
e
6
eb
eb
f0
f7
c
f9
15
ea
a
fb
5
f5
0
1
f7
16
e5
e5
f6
2
fa
6
2a
0
0
ea
f8
fa
f4
ff
fb
fe
f5
ed
f8
c
fc
1e
3
1
fd
eb
ea
e2
ee
e1
d3
dd
ec
a
9
ec
18
24
eb
a
fc
4
fa
f4
fc
f8
8
fd
f8
a
a
3
fb
2
c
fa
e3
de
f2
2
bf
db
ea
f8
e3
f8
e9
fd
14
fe
fc
7
5
ec
1
1
f0
fd
4
f2
f
fd
1
fc
ea
e3
f9
d
d7
ea
cd
c4
f3
e6
e8
f1
1
1
f9
4
d
11
4
ef
f4
2
2
ff
fb
9
f3
f4
4
e5
d0
f1
f
d5
f7
3
f2
fc
0
fc
ff
a
fc
ef
3
f7
a
e
0
10
1
f2
fa
dc
7
6
f3
fe
f3
eb
ea
3
d8
8
dd
dd
f0
fc
f9
fb
19
2
3
d
5
11
f5
e9
fd
0
10
8
3
fa
f3
e8
ee
9
ee
5
e7
ef
f8
d1
f0
f7
10
f5
6
fb
0
20
fc
18
fa
f2
9
7
b
13
f5
5
fc
9
a
4
ef
f2
fa
f1
fa
fb
9
f
3
2
6
fd
a
14
e
f9
12
f6
e
5
a
8
ff
f2
7
c
6
7
4
f8
f9
15
e9
f6
15
f3
7
18
2
f
9
d
1d
16
9
2
fe
d
fd
11
f3
ef
5
f8
c
7
b
12
fe
3
6
1
db
1b
d
4
fd
c
f6
f9
4
a
f1
fc
ee
f6
fc
fc
fc
7
21
17
f9
1d
fb
16
0
22
e3
e
b
1f
fe
24
3
f7
9
f8
fc
ef
ee
fa
16
b
f
ef
b
20
e8
17
f9
3c
22
e8
22
ec
27
7
1a
12
1c
10
f9
11
1a
f7
fe
d
12
f5
13
5
ed
8
ea
f2
0
1a
e1
f0
1a
11
6
1d
24
e6
17
29
c
6
ea
eb
8
f0
e7
0
9
fd
5
f8
e
1
e
13
e8
14
d9
1a
df
22
e
13
0
22
22
17
14
17
f3
3
fa
5
f4
7
fc
4
13
3
11
8
10
10
ed
f2
10
ea
ff
12
f2
d
f9
eb
fe
1
3
e2
eb
11
d1
e5
b
fd
9
f3
f7
eb
f5
6
2
f6
fc
f6
a
2
1a
d
16
e2
fa
fe
c
eb
f4
ec
e
f3
fb
f4
a
b
f
13
1d
5
f
fa
b
0
4
d5
ef
b
5
18
f8
19
21
b
f5
e7
0
c
4
e0
f7
e7
6
4
ff
fe
fd
1
10
4
4
1
f0
ff
eb
f7
f5
f1
2
fd
fd
f3
7
24
e1
f9
e4
e9
e2
ef
fd
0
f8
9
19
fc
18
12
0
3
4
8
fc
fb
e8
fe
19
fe
f7
3
fc
de
5
e1
e4
e3
9
1
f0
3
4
4
f7
fe
11
fe
f3
4
d1
f
d
f5
11
e5
e9
e6
f9
f7
f8
f6
db
d2
fa
f6
e8
c4
c
d
ed
e3
f5
5
f9
1a
fa
fd
8
e
f5
f5
f
8
f9
e4
0
df
f0
ee
f5
b
fc
ff
6
2
1
ee
b
ff
4
3
f8
1
8
e8
fb
12
e3
d7
ff
ef
fb
e8
dc
1
10
f1
f6
7
f1
e2
d
f5
e6
b
c9
f1
e0
ff
e9
a
f8
fa
10
ed
ed
3
ef
e4
f2
0
fc
eb
e9
f2
ff
e5
f3
c
a
fc
f6
17
f5
d
da
e3
13
4
ee
5
ee
a
fa
d
cf
b
b
e8
d8
12
11
1b
f7
b
9
f1
15
f8
ed
c
11
ff
d8
c1
ed
fe
fc
f
ee
d4
e7
e8
e4
18
0
fe
ef
e4
f6
fa
f
f
18
1a
f0
a
d3
fb
db
bf
ea
e5
ef
c
f8
5
18
e9
e6
da
e
6
e9
7
1
e9
5
0
ee
e9
7
fb
7
a
e4
f4
fd
fe
a8
e8
f2
c0
0
e0
f7
ca
f5
b
e9
e7
de
e9
5
ed
17
1b
10
ff
12
f4
f9
4
7
c7
f4
cc
f7
1
cb
ff
2
3
d2
be
e5
c
ec
f0
16
eb
e0
0
12
13
fd
4
fd
12
ff
b
c
bd
cd
d5
6
e3
d5
b9
f3
f
ee
5
7
e6
18
8
e
f8
df
c
d4
f
f4
dc
fc
5
d0
2
0
f
c9
6
e0
fb
9
fe
f0
6
9
4
14
6
b
f0
f1
6
f3
b
f5
fc
6
de
5
f8
fd
c7
e7
e7
e4
d6
7
ee
fc
f9
f8
f9
ed
f6
16
f6
f4
b
c
5
f9
3
4
e2
f3
f6
fe
fc
f5
cb
ed
1
f5
f5
2
2
13
b
d
ee
ff
9
f
fa
7
f2
f4
4
ca
15
1
1
f3
f1
ea
8
4
8
fa
f1
fb
f5
7
f2
16
f0
fc
14
2
e
de
9
16
3
11
f3
e9
e7
15
fe
f8
a
17
4
2
f3
f0
ee
8
f7
f3
e
1c
6
f1
4
fe
f2
ed
ef
11
ee
e6
3
e7
f8
c
db
3
d
2
f3
0
fe
14
fa
fe
4
f7
f5
f5
c
ff
6
f
ff
e7
e1
25
13
21
d
a
f6
ef
e2
f5
fe
ff
f4
fa
f9
e
6
fe
fc
0
fd
f1
5
ed
3
1d
f8
1d
1d
14
1e
fc
e7
3
8
fa
fb
f2
5
b
ff
4
d
f6
ff
a
ed
f1
b
4
1f
23
14
f
ee
e
11
5
12
5
e5
fb
f3
12
7
fd
ea
c
f4
6
ea
f9
f
11
9
f1
ee
eb
9
f3
10
15
f5
b
4
14
f1
fd
10
f9
d
13
fc
10
8
4
5
fc
6
11
f4
d
ff
e8
eb
fe
16
ec
14
18
11
13
e8
e5
e7
f9
1d
7
fc
1e
fc
a
1
8
f0
ef
12
ee
f6
fc
9
c8
ee
f6
d3
fd
de
19
f8
f9
14
f
f9
1c
14
ec
16
3
8
ff
1e
fa
fa
2
de
f
10
10
b
e6
1
fc
f2
a
12
13
16
6
f7
8
ed
fd
1
eb
17
e8
fe
19
11
f2
f8
fc
f7
e8
a
b
f7
8
b
fd
10
d7
f2
d0
10
d
de
fa
1b
f5
c
f7
fa
e2
1e
f4
e8
d
f8
ff
8
16
f2
1b
f5
fc
b
1a
b
fb
f6
b
12
8
12
f9
f9
e4
fc
ff
f6
8
c
13
f0
ff
14
fd
8
3
16
e
f6
b
5
e4
10
ef
11
e
7
22
16
f0
2
f8
f0
22
a
8
0
fc
2
f3
fd
ec
c
a
3
c9
1f
7
f5
e7
f6
18
b
f2
12
1c
11
14
2
e
8
10
6
24
f5
13
27
2
0
15
e8
ff
9
1a
f6
e4
f3
f8
fb
f
10
24
f4
f7
18
5
ec
ea
6
5
10
f5
18
18
2
c
fb
1a
e7
ee
e6
14
eb
ec
0
f4
e0
13
12
11
eb
f2
17
0
f9
ff
ff
ed
fb
3
ed
fe
f3
f7
fa
f6
fa
13
f2
13
f9
fa
b
2
fc
16
fa
fc
a
a
f7
ff
13
12
1
ea
5
f2
0
d
12
ee
fa
2
3
1
f
e9
4
f1
2
ea
fa
f5
ff
fd
fc
12
e4
8
0
8
6
3
f1
14
d
1
eb
8
f8
f6
9
ff
fe
0
f4
3
f4
eb
fa
f3
a
f5
f4
10
ce
f3
de
ff
1
cf
f8
ef
f4
fc
2
f3
e7
f2
b
e
2
d
18
14
fd
f4
f7
f
ef
11
18
11
fd
fd
fb
f6
ec
e4
fd
f
fa
d
ec
e9
fd
e0
7
4
e9
fc
f7
fa
a
11
b
9
11
c
b
fc
5
f9
fa
f4
a
e
10
3
f8
f6
fa
f6
e
7
f3
f3
0
9
f0
4
16
f1
a
2
16
fe
6
11
12
fe
0
d2
e0
0
1
f9
e2
f8
fa
f6
ff
0
f7
eb
ea
0
14
f3
b
3
1
8
18
fb
fd
2
9
9
ff
f9
d8
e6
f6
fb
fb
7
9
f9
ef
f5
fd
ee
e8
e
12
f6
22
f3
4
10
19
15
f
b
b
f8
e9
15
c
f1
fd
e5
f
ea
fb
2
8
f7
6
6
f3
f6
8
b
f4
9
3
ff
15
0
13
1c
f7
4
f4
17
19
f2
12
f5
e7
b
fb
1
6
f3
fb
f4
f8
dc
7
b
13
d
b
f
3
b
0
3
e1
8
6
19
7
9
13
5
b
7
10
f6
b
c
fd
b
fd
0
f
c
ef
16
ec
1c
f7
1
f6
d
3
b
16
fb
23
7
f3
2
dd
fb
f6
fc
8
f7
be
3
3
ff
1
1c
ff
5
8
1e
1f
12
f1
fe
f5
f0
fa
fe
9
fa
9
f4
6
9
9
35
4
e5
fb
3
7
de
b
ed
f
d9
fa
ed
12
ec
12
e9
fa
fe
fb
8
a
3
ee
ff
fe
f7
ff
ea
fb
eb
5
f2
4
c
e4
ea
c
12
f
de
e8
e
ea
f9
e9
e7
2
fc
4
f0
e6
f6
7
e8
fd
e1
c9
e7
db
ee
d
2
9
2
ed
fc
f1
fe
fd
ec
e1
d6
ea
e7
e1
e4
f4
f8
eb
f7
d
e7
a
16
d3
de
cf
1f
4
f0
5
fd
2
fe
f2
f2
de
f1
fe
eb
f9
e
ff
ed
8
dc
e3
f6
ee
16
c
16
d9
e7
f3
18
d1
fa
e5
fb
f9
fd
fc
ed
ef
f1
f9
e8
de
f3
ff
fb
fc
16
ef
e7
f3
ef
f7
d8
4
eb
1a
e6
e6
fa
f9
8
f8
10
12
e7
ec
fd
f2
fb
ff
e
7
4
df
8
3
e8
10
0
6
17
16
8
1
6
1a
16
a
1
f9
fc
fd
ea
f3
de
4
cb
ee
eb
ff
d5
f4
c7
d6
c4
c
f2
fd
d
7
7
ff
f4
18
18
17
e6
c
c9
f5
2
c8
6
e2
f4
e5
e4
ca
d5
ad
e9
dd
fe
4
12
8
16
12
4
f2
14
4
e2
b
ff
e
fd
ec
f5
f1
f1
fc
e8
be
e5
ea
df
8
c7
18
c3
ea
ee
c
19
f0
9
f8
ee
2c
fa
2
f5
ec
7
0
e0
f5
e6
13
e5
fa
e7
ff
ea
1
21
f6
f7
fe
d
3
a
4
d
f
f7
f5
f8
f0
11
e4
fe
f9
e7
1
fd
f2
c
fd
eb
e9
e1
fd
e7
9
fd
0
b
3
e
f4
e2
3
1
13
5
0
fb
d
eb
f9
ff
6
d8
f9
fb
e9
8
e3
c
f0
df
2
ea
fc
fb
fd
6
9
0
4
f4
d
f5
ed
cd
2
ee
c7
d
fe
9
f1
f6
f8
10
f9
f2
e4
e8
14
ec
e5
e4
ed
f5
e2
ff
4
e9
ff
fe
dc
f
8
e2
d2
1
f8
b
fa
c
f6
c6
ed
dd
f3
f7
f7
0
d7
d8
ec
e5
f7
d
f8
12
e0
f8
f4
d7
ff
fc
13
17
1
a
fb
e
12
fa
10
fb
f5
9
f3
fe
3
5
f8
e8
0
e4
eb
ec
fe
f5
f3
13
fd
fb
7
12
10
10
fc
2
0
14
f2
8
13
f2
d8
d2
f0
e
1
d4
e6
f0
f5
a
1
f4
f9
e8
e
5
ff
f8
ff
ff
f9
b
19
d8
fe
b7
12
de
d8
c
f6
11
a
f3
ff
10
fc
e7
f9
ea
ef
a
c
e8
d
1c
16
1
f6
1f
0
3
3
fb
ea
f7
d
b8
8
f8
df
db
13
f9
5
f2
10
f5
fd
1
ff
1
ec
fe
14
5
0
ed
df
e
7
11
12
f8
fe
f2
fb
13
f4
dd
e0
1e
4
ef
6
e4
f
f0
2
f3
ff
6
0
15
0
b
fc
fd
f6
fc
eb
de
8
f0
fc
f5
9
7
b
a
e7
f6
fd
ff
fe
c
e9
ff
f1
15
3
fd
26
7
18
ff
12
1f
c4
f6
cd
ea
f
e2
4
6
9
1a
b
f1
ee
ed
f2
15
5
ff
15
e
f7
fe
f7
e9
13
9
ef
e5
ec
f0
da
e7
f1
11
f6
f3
18
1b
1
1a
f9
7
7
9
fb
f7
f6
eb
3
6
19
f5
da
4
f9
fb
5
1
e7
e2
f6
a
9
23
f5
0
13
f7
e5
e0
5
a
8
f4
9
e4
f4
b
d
28
fe
f5
1
14
ee
f7
f8
ec
fe
15
3
1e
f3
e9
19
fd
ef
9
f4
15
11
ee
c4
18
7
6
4
f7
0
0
0
0
0
0
0
0
0
0
0
0
0
0
0
0
0
0
0
0
0
0
0
0
0
0
0
0
0
0
0
0
0
0
0
0
0
0
0
0
0
0
0
0
0
0
0
0
0
0
0
0
0
0
0
0
0
0
0
0
0
0
0
0
0
0
0
0
0
0
0
0
0
0
0
0
0
0
0
0
0
0
0
0
0
0
0
0
0
0
0
0
0
0
0
0
0
0
0
0
0
0
0
0
0
0
0
0
0
0
0
0
0
0
0
0
0
0
0
0
0
0
0
0
0
0
0
0
0
0
0
0
0
0
0
0
0
0
0
0
0
0
0
0
0
0
0
0
0
0
0
0
0
0
0
0
0
0
0
0
0
0
0
0
0
0
0
0
0
0
0
0
0
0
0
0
0
0
0
0
0
0
0
0
0
0
0
0
0
0
0
0
0
0
0
0
0
0
0
0
0
0
0
0
0
0
0
0
0
0
0
0
0
0
0
0
0
0
0
0
0
0
0
0
0
0
0
0
0
0
0
0
0
0
0
0
0
0
0
0
0
0
0
0
0
0
0
0
0
0
0
0
0
0
0
0
0
0
0
0
0
0
0
0
0
0
0
0
0
0
0
0
0
0
0
0
0
0
0
0
0
0
0
0
0
0
0
0
0
0
0
0
0
0
0
0
0
0
0
0
0
0
0
0
0
0
0
0
0
0
0
0
0
0
0
0
0
0
0
0
0
0
0
0
0
0
0
0
0
0
0
0
0
0
0
0
0
0
0
0
0
0
0
0
0
0
0
0
0
0
0
0
0
0
0
0
0
0
0
0
0
0
0
0
0
0
0
0
0
0
0
0
0
0
0
0
0
0
0
0
0
0
0
0
0
0
0
0
0
0
0
0
0
0
0
0
0
0
0
0
0
0
0
0
0
0
0
0
0
0
0
0
0
0
0
0
0
0
0
0
0
0
0
0
0
0
0
0
0
0
0
0
0
0
0
0
0
0
0
0
0
0
0
0
0
0
0
0
0
0
0
0
0
0
0
0
0
0
0
0
0
0
0
0
0
0
0
0
0
0
0
0
0
0
0
0
0
0
0
0
0
0
0
0
0
0
0
0
0
0
0
0
0
0
0
0
0
0
0
0
0
0
0
0
0
0
0
0
0
0
0
0
0
0
0
0
0
0
0
0
0
0
0
0
0
0
0
0
0
0
0
0
0
0
0
0
0
0
0
0
0
0
0
0
0
0
0
0
0
0
0
0
0
0
0
0
0
0
0
0
0
0
0
0
0
0
0
0
0
0
0
0
0
0
0
0
0
0
0
0
0
0
0
0
0
0
0
0
0
0
0
0
0
0
0
0
0
0
0
0
0
0
0
0
0
0
0
0
0
0
0
0
0
0
0
0
0
0
0
0
0
0
0
0
0
0
0
0
0
0
0
0
0
0
0
0
0
0
0
0
0
0
0
0
0
0
0
0
0
0
0
0
0
0
0
0
0
0
0
0
0
0
0
0
0
0
0
0
0
0
0
0
0
0
0
0
0
0
0
0
0
0
0
0
0
0
0
0
0
0
0
0
0
0
0
0
0
0
0
0
0
0
0
0
0
0
0
0
0
0
0
0
0
0
0
0
0
0
0
0
0
0
0
0
0
0
0
0
0
0
0
0
0
0
0
0
0
0
0
0
0
0
0
0
0
0
0
0
0
0
0
0
0
0
0
0
0
0
0
0
0
0
0
0
0
0
0
0
0
0
0
0
0
0
0
0
0
0
0
0
0
0
0
0
0
0
0
0
0
0
0
0
0
0
0
0
0
0
0
0
0
0
0
0
0
0
0
0
0
0
0
0
0
0
0
0
0
0
0
0
0
0
0
0
0
0
0
0
0
0
0
0
0
0
0
0
0
0
0
0
0
0
0
0
0
0
0
0
0
0
0
0
0
0
0
0
0
0
0
0
0
0
0
0
0
0
0
0
0
0
0
0
0
0
0
0
0
0
0
0
0
0
0
0
0
0
0
0
0
0
0
0
0
0
0
0
0
0
0
0
0
0
0
0
0
0
0
0
0
0
0
0
0
0
0
0
0
0
0
0
0
0
0
0
0
0
0
0
0
0
0
0
0
0
0
0
0
0
0
0
0
0
0
0
0
0
0
0
0
0
0
0
0
0
0
0
0
0
0
0
0
0
0
0
0
0
0
0
0
0
0
0
0
0
0
0
0
0
0
0
0
0
0
0
0
0
0
0
0
0
0
0
0
0
0
0
0
0
0
0
0
0
0
0
0
0
0
0
0
0
0
0
0
0
0
0
0
0
0
0
0
0
0
0
0
0
0
0
0
0
0
0
0
0
0
0
0
0
0
0
0
0
0
0
0
0
0
0
0
0
0
0
0
0
0
0
0
0
0
0
0
0
0
0
0
0
0
0
0
0
0
0
0
0
0
0
0
0
0
0
0
0
0
0
0
0
0
0
0
0
0
0
0
0
0
0
0
0
0
0
0
0
0
0
0
0
0
0
0
0
0
0
0
0
0
0
0
0
0
0
0
0
0
0
0
0
0
0
0
0
0
0
0
0
0
0
0
0
0
0
0
0
0
0
0
0
0
0
0
0
0
0
0
0
0
0
0
0
0
0
0
0
0
0
0
0
0
0
0
0
0
0
0
0
0
0
0
0
0
0
0
0
0
0
0
0
0
0
0
0
0
0
0
0
0
0
0
0
0
0
0
0
0
0
0
0
0
0
0
0
0
0
0
0
0
0
0
0
0
0
0
0
0
0
0
0
0
0
0
0
0
0
0
0
0
0
0
0
0
0
0
0
0
0
0
0
0
0
0
0
0
0
0
0
0
0
0
0
0
0
0
0
0
0
0
0
0
0
0
0
0
0
0
0
0
0
0
0
0
0
0
0
0
0
0
0
0
0
0
0
0
0
0
0
0
0
0
0
0
0
0
0
0
0
0
0
0
0
0
0
0
0
0
0
0
0
0
0
0
0
0
0
0
0
0
0
0
0
0
0
0
0
0
0
0
0
0
0
0
0
0
0
0
0
0
0
0
0
0
0
0
0
0
0
0
0
0
0
0
0
0
0
0
0
0
0
0
0
0
0
0
0
0
0
0
0
0
0
0
0
0
0
0
0
0
0
0
0
0
0
0
0
0
0
0
0
0
0
0
0
0
0
0
0
0
0
0
0
0
0
0
0
0
0
0
0
0
0
0
0
0
0
0
0
0
0
0
0
0
0
0
0
0
0
0
0
0
0
0
0
0
0
0
0
0
0
0
0
0
0
0
0
0
0
0
0
0
0
0
0
0
0
0
0
0
0
0
0
0
0
0
0
0
0
0
0
0
0
0
0
0
0
0
0
0
0
0
0
0
0
0
0
0
0
0
0
0
0
0
0
0
0
0
0
0
0
0
0
0
0
0
0
0
0
0
0
0
0
0
0
0
0
0
0
0
0
0
0
0
0
0
0
0
0
0
0
0
0
0
0
0
0
0
0
0
0
0
0
0
0
0
0
0
0
0
0
0
0
0
0
0
0
0
0
0
0
0
0
0
0
0
0
0
0
0
0
0
0
0
0
0
0
0
0
0
0
0
0
0
0
0
0
0
0
0
0
0
0
0
0
0
0
0
0
0
0
0
0
0
0
0
0
0
0
0
0
0
0
0
0
0
0
0
0
0
0
0
0
0
0
0
0
0
0
0
0
0
0
0
0
0
0
0
0
0
0
0
0
0
0
0
0
0
0
0
0
0
0
0
0
0
0
0
0
0
0
0
0
0
0
0
0
0
0
0
0
0
0
0
0
0
0
0
0
0
0
0
0
0
0
0
0
0
0
0
0
0
0
0
0
0
0
0
0
0
0
0
0
0
0
0
0
0
0
0
0
0
0
0
0
0
0
0
0
0
0
0
0
0
0
0
0
0
0
0
0
0
0
0
0
0
0
0
0
0
0
0
0
0
0
0
0
0
0
0
0
0
0
0
0
0
0
0
0
0
0
0
0
0
0
0
0
0
0
0
0
0
0
0
0
0
0
0
0
0
0
0
0
0
0
0
0
0
0
0
0
0
0
0
0
0
0
0
0
0
0
0
0
0
0
0
0
0
0
0
0
0
0
0
0
0
0
0
0
0
0
0
0
0
0
0
0
0
0
0
0
0
0
0
0
0
0
0
0
0
0
0
0
0
0
0
0
0
0
0
0
0
0
0
0
0
0
0
0
0
0
0
0
0
0
0
0
0
0
0
0
0
0
0
0
0
0
0
0
0
0
0
0
0
0
0
0
0
0
0
0
0
0
0
0
0
0
0
0
0
0
0
0
0
0
0
0
0
0
0
0
0
0
0
0
0
0
0
0
0
0
0
0
0
0
0
0
0
0
0
0
0
0
0
0
0
0
0
0
0
0
0
0
0
0
0
0
0
0
0
0
0
0
0
0
0
0
0
0
0
0
0
0
0
0
0
0
0
0
0
0
0
0
0
0
0
0
0
0
0
0
0
0
0
0
0
0
0
0
0
0
0
0
0
0
0
0
0
0
0
0
0
0
0
0
0
0
0
0
0
0
0
0
0
0
0
0
0
0
0
0
0
0
0
0
0
0
0
0
0
0
0
0
0
0
0
0
0
0
0
0
0
0
0
0
0
0
0
0
0
0
0
0
0
0
0
0
0
0
0
0
0
0
0
0
0
0
0
0
0
0
0
0
0
0
0
0
0
0
0
0
0
0
0
0
0
0
0
0
0
0
0
0
0
0
0
0
0
0
0
0
0
0
0
0
0
0
0
0
0
0
0
0
0
0
0
0
0
0
0
0
0
0
0
0
0
0
0
0
0
0
0
0
0
0
0
0
0
0
0
0
0
0
0
0
0
0
0
0
0
0
0
0
0
0
0
0
0
0
0
0
0
0
0
0
0
0
0
0
0
0
0
0
0
0
0
0
0
0
0
0
0
0
0
0
0
0
0
0
0
0
0
0
0
0
0
0
0
0
0
0
0
0
0
0
0
0
0
0
0
0
0
0
0
0
0
0
0
0
0
0
0
0
0
0
0
0
0
0
0
0
0
0
0
0
0
0
0
0
0
0
0
0
0
0
0
0
0
0
0
0
0
0
0
0
0
0
0
0
0
0
0
0
0
0
0
0
0
0
0
0
0
0
0
0
0
0
0
0
0
0
0
0
0
0
0
0
0
0
0
0
0
0
0
0
0
0
0
0
0
0
0
0
0
0
0
0
0
0
0
0
0
0
0
0
0
0
0
0
0
0
0
0
0
0
0
0
0
0
0
0
0
0
0
0
0
0
0
0
0
0
0
0
0
0
0
0
0
0
0
0
0
0
0
0
0
0
0
0
0
0
0
0
0
0
0
0
0
0
0
0
0
0
0
0
0
0
0
0
0
0
0
0
0
0
0
0
0
0
0
0
0
0
0
0
0
0
0
0
0
0
0
0
0
0
0
0
0
0
0
0
0
0
0
0
0
0
0
0
0
0
0
0
0
0
0
0
0
0
0
0
0
0
0
0
0
0
0
0
0
0
0
0
0
0
0
0
0
0
0
0
0
0
0
0
0
0
0
0
0
0
0
0
0
0
0
0
0
0
0
0
0
0
0
0
0
0
0
0
0
0
0
0
0
0
0
0
0
0
0
0
0
0
0
0
0
0
0
0
0
0
0
0
0
0
0
0
0
0
0
0
0
0
0
0
0
0
0
0
0
0
0
0
0
0
0
0
0
0
0
0
0
0
0
0
0
0
0
0
0
0
0
0
0
0
0
0
0
0
0
0
0
0
0
0
0
0
0
0
0
0
0
0
0
0
0
0
0
0
0
0
0
0
0
0
0
0
0
0
0
0
0
0
0
0
0
0
0
0
0
0
0
0
0
0
0
0
0
0
0
0
0
0
0
0
0
0
0
0
0
0
0
0
0
0
0
0
0
0
0
0
0
0
0
0
0
0
0
0
0
0
0
0
0
0
0
0
0
0
0
0
0
0
0
0
0
0
0
0
0
0
0
0
0
0
0
0
0
0
0
0
0
0
0
0
0
0
0
0
0
0
0
0
0
0
0
0
0
0
0
0
0
0
0
0
0
0
0
0
0
0
0
0
0
0
0
0
0
0
0
0
0
0
0
0
0
0
0
0
0
0
0
0
0
0
0
0
0
0
0
0
0
0
0
0
0
0
0
0
0
0
0
0
0
0
0
0
0
0
0
0
0
0
0
0
0
0
0
0
0
0
0
0
0
0
0
0
0
0
0
0
0
0
0
0
0
0
0
0
0
0
0
0
0
0
0
0
0
0
0
0
0
0
0
0
0
0
0
0
0
0
0
0
0
0
0
0
0
0
0
0
0
0
0
0
0
0
0
0
0
0
0
0
0
0
0
0
0
0
0
0
0
0
0
0
0
0
0
0
0
0
0
0
0
0
0
0
0
0
0
0
0
0
0
0
0
0
0
0
0
0
0
0
0
0
0
0
0
0
0
0
0
0
0
0
0
0
0
0
0
0
0
0
0
0
0
0
0
0
0
0
0
0
0
0
0
0
0
0
0
0
0
0
0
0
0
0
0
0
0
0
0
0
0
0
0
0
0
0
0
0
0
0
0
0
0
0
0
0
0
0
0
0
0
0
0
0
0
0
0
0
0
0
0
0
0
0
0
0
0
0
0
0
0
0
0
0
0
0
0
0
0
0
0
0
0
0
0
0
0
0
0
0
0
0
0
0
0
0
0
0
0
0
0
0
0
0
0
0
0
0
0
0
0
0
0
0
0
0
0
0
0
0
0
0
0
0
0
0
0
0
0
0
0
0
0
0
0
0
0
0
0
0
0
0
0
0
0
0
0
0
0
0
0
0
0
0
0
0
0
0
0
0
0
0
0
0
0
0
0
0
0
0
0
0
0
0
0
0
0
0
0
0
0
0
0
0
0
0
0
0
0
0
0
0
0
0
