# compile verilog/system verilog design source files
verilog xil_defaultlib  --include "../../../../chip.srcs/sources_1/ip/clk_wiz_0" \
"../../../../chip.srcs/sources_1/ip/clk_wiz_0/clk_wiz_0_clk_wiz.v" \
"../../../../chip.srcs/sources_1/ip/clk_wiz_0/clk_wiz_0.v" \
"../../../../chip.srcs/sources_1/new/FPGA_TOP_3.v" \
"../../../../chip.srcs/sources_1/new/MAC.v" \
"../../../../chip.srcs/sources_1/new/PE_wrapper_16_PE_IO_pin_edit.v" \
"../../../../chip.srcs/sources_1/new/chip_top_fpga.v" \
"../../../../chip.srcs/sources_1/new/dec2_1.v" \
"../../../../chip.srcs/sources_1/imports/memory_test/generic_dpram.v" \
"../../../../chip.srcs/sources_1/imports/verilog/generic_fifo_dc.v" \
"../../../../chip.srcs/sources_1/new/lvl_1_dec.v" \
"../../../../chip.srcs/sources_1/new/lvl_2_dec.v" \
"../../../../chip.srcs/sources_1/new/lvl_3_dec.v" \
"../../../../chip.srcs/sources_1/new/rdp_256X32.v" \
"../../../../chip.srcs/sources_1/new/seven_segment.v" \
"../../../../chip.srcs/sources_1/new/uart.v" \
"../../../../chip.srcs/sim_1/new/FPGA_TOP_tb.v" \

# compile glbl module
verilog xil_defaultlib "glbl.v"

# Do not sort compile order
nosort
