6000
6000
6000
6000
6000
6000
6000
6000
6000
6000
2000
2001
2002
2003
2004
2005
2006
2007
2200
2201
2202
2203
2204
2205
2206
2207
2400
2401
2402
2403
2404
2405
2406
2407
2600
2601
2602
2603
2604
2605
2606
2607
2800
2801
2802
2803
2804
2805
2806
2807
2a00
2a01
2a02
2a03
2a04
2a05
2a06
2a07
2c00
2c01
2c02
2c03
2c04
2c05
2c06
2c07
2e00
2e01
2e02
2e03
2e04
2e05
2e06
2e07
3000
3001
3002
3003
3004
3005
3006
3007
3200
3201
3202
3203
3204
3205
3206
3207
3400
3401
3402
3403
3404
3405
3406
3407
3600
3601
3602
3603
3604
3605
3606
3607
3800
3801
3802
3803
3804
3805
3806
3807
3a00
3a01
3a02
3a03
3a04
3a05
3a06
3a07
3c00
3c01
3c02
3c03
3c04
3c05
3c06
3c07
3e00
3e01
3e02
3e03
3e04
3e05
3e06
3e07
6000
6000
6000
6000
6000
6000
6000
6000
6000
6000
2000
2001
2200
2201
2400
2401
2600
2601
2800
2801
2a00
2a01
2c00
2c01
2e00
2e01
3000
3001
3200
3201
