3
10
3
10
0
8
3
f
1
8
0
0
0
0
0
0
0
0
0
0
0
0
0
0
0
0
0
0
0
0
0
0
0
0
0
0
0
0
0
0
0
0
0
0
0
0
0
0
0
0
0
0
0
0
0
0
0
0
0
0
0
0
0
0
0
0
0
0
0
0
0
0
0
0
0
0
0
0
0
0
0
0
0
0
0
0
0
0
0
0
0
0
0
0
0
0
0
0
0
0
0
0
0
0
0
0
0
0
0
0
0
0
0
0
0
0
0
0
0
0
0
0
0
0
0
0
0
0
0
0
0
0
0
0
0
0
0
0
1a
7d
7f
6d
0
0
0
0
0
0
0
0
0
0
0
0
0
0
0
0
0
0
0
0
0
0
0
59
7f
7f
7f
7f
2e
0
0
0
0
0
0
0
0
0
0
0
0
0
0
0
0
0
0
0
0
0
3f
7f
7f
7f
7f
7f
62
0
0
0
0
0
0
0
0
0
0
0
0
0
0
0
0
0
0
0
0
1e
7f
7f
7f
10
28
7f
8
0
0
0
0
0
0
0
0
0
0
0
0
0
0
0
0
0
0
0
0
7f
7f
7f
7
12
7f
68
0
0
0
0
0
0
0
0
0
0
0
0
0
0
0
0
0
0
0
0
1d
7f
7f
3f
5d
7f
7f
3a
0
0
0
0
0
0
0
0
0
0
0
0
0
0
0
0
0
0
0
0
7f
7f
7f
9
27
20
0
0
0
0
0
0
0
0
0
0
0
0
0
0
0
0
0
0
0
0
0
47
7f
7f
28
0
0
0
0
0
0
0
0
0
0
0
0
0
0
0
0
0
0
0
0
0
0
0
0
7b
7f
4e
0
0
0
0
0
0
0
0
0
0
0
0
0
0
0
0
0
0
0
0
0
0
0
0
48
7f
7f
27
0
10
7f
7f
7f
47
0
0
0
0
0
0
0
0
0
0
0
0
0
0
0
0
0
0
7f
7f
4e
0
10
7f
7f
7f
7f
5b
0
0
0
0
0
0
0
0
0
0
0
0
0
0
0
0
0
0
7f
7f
d
f
7f
7f
7f
7f
7f
5b
0
0
0
0
0
0
0
0
0
0
0
0
0
0
0
0
0
0
7f
7f
0
61
7f
7f
63
46
7f
5b
0
0
0
0
0
0
0
0
0
0
0
0
0
0
0
0
0
43
7f
7f
0
7f
7f
62
38
7f
7f
1e
0
0
0
0
0
0
0
0
0
0
0
0
0
0
0
0
0
63
7f
7f
33
7f
7f
8
7f
7f
1e
0
0
0
0
0
0
0
0
0
0
0
0
0
0
0
0
0
0
63
7f
59
4f
7f
7f
7f
7f
7f
0
0
0
0
0
0
0
0
0
0
0
0
0
0
0
0
0
0
0
63
7f
75
4f
7f
7f
7f
7f
20
0
0
0
0
0
0
0
0
0
0
0
0
0
0
0
0
0
0
0
5e
7f
7f
7f
7f
7f
7f
1f
0
0
0
0
0
0
0
0
0
0
0
0
0
0
0
0
0
0
0
0
0
7f
7f
7f
7f
7f
1e
0
0
0
0
0
0
0
0
0
0
0
0
0
0
0
0
0
0
0
0
0
0
6d
7f
7f
59
0
0
0
0
0
0
0
0
0
0
0
0
0
0
0
0
0
0
0
0
0
0
0
0
0
0
0
0
0
0
0
0
0
0
0
0
0
0
0
0
0
0
0
0
0
0
0
0
0
0
0
0
0
0
0
0
0
0
0
0
0
0
0
0
0
0
0
0
0
0
0
0
0
0
0
0
0
0
0
0
0
0
0
0
0
0
0
0
0
0
0
0
0
0
0
0
0
0
0
0
0
0
0
0
0
0
0
0
0
0
0
0
0
0
0
0
0
0
0
0
0
0
0
0
0
0
