0
0
0
0
0
0
0
0
0
0
0
0
0
0
0
0
0
0
0
0
0
0
0
0
0
0
0
0
0
0
0
0
0
0
0
0
0
0
0
0
0
0
0
0
0
0
0
0
0
0
0
0
0
0
0
0
0
0
0
0
0
0
0
0
0
0
0
0
0
0
0
0
0
0
0
0
0
0
0
0
0
0
0
0
0
0
0
0
0
0
0
0
0
0
0
0
0
0
0
0
0
0
0
0
0
0
0
0
0
0
0
0
0
0
0
0
0
0
0
0
0
0
0
0
0
0
0
0
2
e2
fb
8
e7
22
21
34
eb
f9
f5
0
0
0
0
0
0
0
0
0
0
0
0
0
0
0
0
9
8
20
fa
ba
e5
c3
f1
b2
d5
6
f1
5
0
0
0
0
0
0
0
0
0
0
0
0
0
0
fe
0
1b
cb
c4
34
d9
43
d3
16
f
10
f6
fe
0
0
0
0
0
0
0
0
0
0
0
0
0
fe
fd
dd
17
e6
c6
cb
42
db
e1
1b
4
10
f7
ff
0
0
0
0
0
0
0
0
0
0
0
0
0
4
2
10
e0
fc
ca
19
cd
ce
cb
d6
14
f0
fc
0
0
0
0
0
0
0
0
0
0
0
0
0
fd
b
f4
da
e6
d5
47
cc
3b
d8
c6
fa
d1
12
f9
0
0
0
0
0
0
0
0
0
0
0
0
0
ec
eb
f0
dd
1a
1
31
2b
2d
ee
fb
f1
2
0
0
0
0
0
0
0
0
0
0
0
0
0
0
7
eb
d3
d6
db
27
29
e4
c7
e2
fd
0
0
0
0
0
0
0
0
0
0
0
0
0
0
0
0
0
fe
e4
da
3f
bf
ea
f2
f9
ed
16
0
0
0
0
0
0
0
0
0
0
0
0
0
0
0
0
0
8
24
dc
36
ea
cd
e7
e1
c3
37
fd
d
3c
3e
23
e
5
0
0
0
0
0
0
0
0
0
0
0
f4
11
1e
3c
20
f4
21
c8
d9
0
bf
49
17
4b
25
fa
f8
0
0
0
0
0
0
0
0
0
0
0
ff
e2
12
20
cb
b8
12
c3
fe
21
bc
2e
f
b3
e5
eb
f0
0
0
0
0
0
0
0
0
0
0
0
3
e7
fe
f7
40
d
e0
17
e9
ec
11
32
b7
21
5
f5
10
0
0
0
0
0
0
0
0
0
0
9
e6
2c
34
d1
39
ce
38
31
d8
d6
ef
2c
3b
20
14
f0
4
0
0
0
0
0
0
0
0
0
0
b
1a
d2
ef
28
d1
d0
12
21
32
1b
18
fa
26
21
13
fe
0
0
0
0
0
0
0
0
0
0
0
4
1a
ee
e5
d1
bf
35
ce
fa
f7
d9
d7
33
be
dd
b
0
0
0
0
0
0
0
0
0
0
0
0
f5
e5
d2
22
f6
4a
48
87
46
2
dc
1c
d3
1c
f5
1
0
0
0
0
0
0
0
0
0
0
0
0
fa
f5
e1
28
49
da
cb
9a
2a
35
24
e8
df
5
fd
0
0
0
0
0
0
0
0
0
0
0
0
0
0
fc
e4
ea
ff
d8
c9
46
1e
0
19
15
5
fc
0
0
0
0
0
0
0
0
0
0
0
0
0
0
0
fc
e6
26
c4
1c
ef
f5
f
2c
f8
f9
0
0
0
0
0
0
0
0
0
0
0
0
0
0
0
0
0
0
0
0
0
0
0
0
0
0
0
0
0
0
0
0
0
0
0
0
0
0
0
0
0
0
0
0
0
0
0
0
0
0
0
0
0
0
0
0
0
0
0
0
0
0
0
0
0
0
0
0
0
0
0
0
0
0
0
0
0
0
0
0
0
0
0
0
0
0
0
0
0
0
0
0
0
0
0
0
0
0
0
0
0
0
0
0
0
0
0
0
0
0
0
0
0
0
0
0
0
0
0
